﻿Log file open, 04/19/19 17:52:50
LogWindows: Failed to load 'aqProf.dll' (GetLastError=126)
LogWindows: File 'aqProf.dll' does not exist
LogWindows: Failed to load 'VtuneApi.dll' (GetLastError=126)
LogWindows: File 'VtuneApi.dll' does not exist
LogWindows: Failed to load 'VtuneApi32e.dll' (GetLastError=126)
LogWindows: File 'VtuneApi32e.dll' does not exist
LogConsoleResponse: Display: Failed to find resolution value strings in scalability ini. Falling back to default.
LogInit: Display: Running engine for game: FPSterronia
LogPakFile: Registered encryption key '00000000000000000000000000000000': 0 pak files mounted, 0 remain pending
LogPlatformFile: Not using cached read wrapper
LogTaskGraph: Started task graph with 5 named threads and 11 total threads with 3 sets of task threads.
LogStats: Stats thread started at 0.173153
LogD3D11RHI: Loaded GFSDK_Aftermath_Lib.x64.dll
LogICUInternationalization: ICU TimeZone Detection - Raw Offset: +1:00, Platform Override: ''
LogPluginManager: Mounting plugin Paper2D
LogPluginManager: Mounting plugin AISupport
LogPluginManager: Mounting plugin LightPropagationVolume
LogPluginManager: Mounting plugin ActorLayerUtilities
LogPluginManager: Mounting plugin CLionSourceCodeAccess
LogPluginManager: Mounting plugin CodeLiteSourceCodeAccess
LogPluginManager: Mounting plugin GitSourceControl
LogPluginManager: Mounting plugin KDevelopSourceCodeAccess
LogPluginManager: Mounting plugin NullSourceCodeAccess
LogPluginManager: Mounting plugin PerforceSourceControl
LogPluginManager: Mounting plugin SubversionSourceControl
LogPluginManager: Mounting plugin UObjectPlugin
LogPluginManager: Mounting plugin VisualStudioCodeSourceCodeAccess
LogPluginManager: Mounting plugin VisualStudioSourceCodeAccess
LogPluginManager: Mounting plugin XCodeSourceCodeAccess
LogPluginManager: Mounting plugin AssetManagerEditor
LogPluginManager: Mounting plugin CryptoKeys
LogPluginManager: Mounting plugin DataValidation
LogPluginManager: Mounting plugin FacialAnimation
LogPluginManager: Mounting plugin GameplayTagsEditor
LogPluginManager: Mounting plugin MacGraphicsSwitching
LogPluginManager: Mounting plugin MeshEditor
LogPluginManager: Mounting plugin MobileLauncherProfileWizard
LogPluginManager: Mounting plugin PluginBrowser
LogPluginManager: Mounting plugin SpeedTreeImporter
LogPluginManager: Mounting plugin DatasmithContent
LogPluginManager: Mounting plugin VariantManagerContent
LogPluginManager: Mounting plugin AlembicImporter
LogPluginManager: Mounting plugin AppleImageUtils
LogPluginManager: Mounting plugin AppleVision
LogPluginManager: Mounting plugin BackChannel
LogPluginManager: Mounting plugin CharacterAI
LogPluginManager: Mounting plugin GeometryCache
LogPluginManager: Mounting plugin HTML5Networking
LogPluginManager: Mounting plugin ProxyLODPlugin
LogPluginManager: Mounting plugin MagicLeap
LogPluginManager: Mounting plugin MagicLeapMedia
LogPluginManager: Mounting plugin AndroidMedia
LogPluginManager: Mounting plugin AvfMedia
LogPluginManager: Mounting plugin ImgMedia
LogPluginManager: Mounting plugin LinearTimecode
LogPluginManager: Mounting plugin MediaCompositing
LogPluginManager: Mounting plugin MediaPlayerEditor
LogPluginManager: Mounting plugin WebMMedia
LogPluginManager: Mounting plugin WmfMedia
LogPluginManager: Mounting plugin TcpMessaging
LogPluginManager: Mounting plugin UdpMessaging
LogPluginManager: Mounting plugin ActorSequence
LogPluginManager: Mounting plugin LevelSequenceEditor
LogPluginManager: Mounting plugin MatineeToLevelSequence
LogPluginManager: Mounting plugin NetcodeUnitTest
LogPluginManager: Mounting plugin NUTUnrealEngine4
LogPluginManager: Mounting plugin OnlineSubsystemGooglePlay
LogPluginManager: Mounting plugin OnlineSubsystemIOS
LogPluginManager: Mounting plugin OnlineSubsystem
LogPluginManager: Mounting plugin OnlineSubsystemNull
LogPluginManager: Mounting plugin OnlineSubsystemUtils
LogPluginManager: Mounting plugin LauncherChunkInstaller
LogPluginManager: Mounting plugin AndroidDeviceProfileSelector
LogPluginManager: Mounting plugin AndroidMoviePlayer
LogPluginManager: Mounting plugin AndroidPermission
LogPluginManager: Mounting plugin AppleMoviePlayer
LogPluginManager: Mounting plugin ArchVisCharacter
LogPluginManager: Mounting plugin AudioCapture
LogPluginManager: Mounting plugin CableComponent
LogPluginManager: Mounting plugin CustomMeshComponent
LogPluginManager: Mounting plugin EditableMesh
LogPluginManager: Mounting plugin ExampleDeviceProfileSelector
LogPluginManager: Mounting plugin Firebase
LogPluginManager: Mounting plugin GoogleCloudMessaging
LogPluginManager: Mounting plugin IOSDeviceProfileSelector
LogPluginManager: Mounting plugin LinuxDeviceProfileSelector
LogPluginManager: Mounting plugin LocationServicesBPLibrary
LogPluginManager: Mounting plugin MobilePatchingUtils
LogPluginManager: Mounting plugin OculusVR
LogPluginManager: Mounting plugin PhysXVehicles
LogPluginManager: Mounting plugin ProceduralMeshComponent
LogPluginManager: Mounting plugin RuntimePhysXCooking
LogPluginManager: Mounting plugin SteamVR
LogPluginManager: Mounting plugin WebMMoviePlayer
LogPluginManager: Mounting plugin WindowsMoviePlayer
LogStreaming: Display: Took  0.171s to configure plugins.
LogInit: Using libcurl 7.55.1-DEV
LogInit:  - built for x86_64-pc-win32
LogInit:  - supports SSL with OpenSSL/1.0.2h
LogInit:  - supports HTTP deflate (compression) using libz 1.2.8
LogInit:  - other features:
LogInit:      CURL_VERSION_SSL
LogInit:      CURL_VERSION_LIBZ
LogInit:      CURL_VERSION_IPV6
LogInit:      CURL_VERSION_ASYNCHDNS
LogInit:      CURL_VERSION_LARGEFILE
LogInit:      CURL_VERSION_IDN
LogInit:  CurlRequestOptions (configurable via config and command line):
LogInit:  - bVerifyPeer = true  - Libcurl will verify peer certificate
LogInit:  - bUseHttpProxy = false  - Libcurl will NOT use HTTP proxy
LogInit:  - bDontReuseConnections = false  - Libcurl will reuse connections
LogInit:  - MaxHostConnections = 16  - Libcurl will limit the number of connections to a host
LogInit:  - LocalHostAddr = Default
LogInit:  - BufferSize = 65536
LogInit: WinSock: version 1.1 (2.2), MaxSocks=32767, MaxUdp=65467
LogInit: Build: ++UE4+Release-4.21-CL-4753647
LogInit: Engine Version: 4.21.2-4753647+++UE4+Release-4.21
LogInit: Compatible Engine Version: 4.21.0-4541578+++UE4+Release-4.21
LogInit: Net CL: 4541578
LogInit: OS: Windows 10 (), CPU: Intel(R) Core(TM) i7-6500U CPU @ 2.50GHz, GPU: Intel(R) HD Graphics 520
LogInit: Compiled (64-bit): Jan 19 2019 02:07:31
LogInit: Compiled with Visual C++: 19.13.26129.00
LogInit: Build Configuration: Development
LogInit: Branch Name: ++UE4+Release-4.21
LogInit: Command Line: 
LogInit: Base Directory: C:/Program Files/Epic Games/UE_4.21/Engine/Binaries/Win64/
LogInit: Installed Engine Build: 1
LogDevObjectVersion: Number of dev versions registered: 22
LogDevObjectVersion:   Dev-Blueprints (B0D832E4-1F89-4F0D-ACCF-7EB736FD4AA2): 10
LogDevObjectVersion:   Dev-Build (E1C64328-A22C-4D53-A36C-8E866417BD8C): 0
LogDevObjectVersion:   Dev-Core (375EC13C-06E4-48FB-B500-84F0262A717E): 2
LogDevObjectVersion:   Dev-Editor (E4B068ED-F494-42E9-A231-DA0B2E46BB41): 26
LogDevObjectVersion:   Dev-Framework (CFFC743F-43B0-4480-9391-14DF171D2073): 34
LogDevObjectVersion:   Dev-Mobile (B02B49B5-BB20-44E9-A304-32B752E40360): 2
LogDevObjectVersion:   Dev-Networking (A4E4105C-59A1-49B5-A7C5-40C4547EDFEE): 0
LogDevObjectVersion:   Dev-Online (39C831C9-5AE6-47DC-9A44-9C173E1C8E7C): 0
LogDevObjectVersion:   Dev-Physics (78F01B33-EBEA-4F98-B9B4-84EACCB95AA2): 0
LogDevObjectVersion:   Dev-Platform (6631380F-2D4D-43E0-8009-CF276956A95A): 0
LogDevObjectVersion:   Dev-Rendering (12F88B9F-8875-4AFC-A67C-D90C383ABD29): 27
LogDevObjectVersion:   Dev-Sequencer (7B5AE74C-D270-4C10-A958-57980B212A5A): 9
LogDevObjectVersion:   Dev-VR (D7296918-1DD6-4BDD-9DE2-64A83CC13884): 2
LogDevObjectVersion:   Dev-LoadTimes (C2A15278-BFE7-4AFE-6C17-90FF531DF755): 1
LogDevObjectVersion:   Private-Geometry (6EACA3D4-40EC-4CC1-B786-8BED09428FC5): 3
LogDevObjectVersion:   Dev-AnimPhys (29E575DD-E0A3-4627-9D10-D276232CDCEA): 17
LogDevObjectVersion:   Dev-Anim (AF43A65D-7FD3-4947-9873-3E8ED9C1BB05): 2
LogDevObjectVersion:   Dev-ReflectionCapture (6B266CEC-1EC7-4B8F-A30B-E4D90942FC07): 1
LogDevObjectVersion:   Dev-Automation (0DF73D61-A23F-47EA-B727-89E90C41499A): 1
LogDevObjectVersion:   FortniteMain (601D1886-AC64-4F84-AA16-D3DE0DEAC7D6): 17
LogDevObjectVersion:   Dev-Enterprise (9DFFBCD6-494F-0158-E221-12823C92A888): 4
LogDevObjectVersion:   Dev-Niagara (F2AED0AC-9AFE-416F-8664-AA7FFA26D6FC): 1
LogStreaming: Display: Took  0.029s to delete old logs.
LogInit: Presizing for max 8388607 objects, including 0 objects not considered by GC, pre-allocating 0 bytes for permanent pool.
LogInit: Object subsystem initialized
LogConfig: Setting CVar [[con.DebugEarlyDefault:1]]
LogConfig: Setting CVar [[r.setres:1280x720]]
[2019.04.19-15.52.51:251][  0]LogConfig: Setting CVar [[r.VSync:0]]
[2019.04.19-15.52.51:251][  0]LogConfig: Setting CVar [[r.RHICmdBypass:0]]
[2019.04.19-15.52.51:251][  0]LogConfig: Applying CVar settings from Section [/Script/Engine.RendererSettings] File [C:/Users/tonyh/Documents/terroniafps/FPSterronia/Saved/Config/Windows/Engine.ini]
[2019.04.19-15.52.51:251][  0]LogConfig: Setting CVar [[r.GPUCrashDebugging:0]]
[2019.04.19-15.52.51:251][  0]LogConfig: Applying CVar settings from Section [/Script/Engine.RendererOverrideSettings] File [C:/Users/tonyh/Documents/terroniafps/FPSterronia/Saved/Config/Windows/Engine.ini]
[2019.04.19-15.52.51:251][  0]LogConfig: Applying CVar settings from Section [/Script/Engine.StreamingSettings] File [C:/Users/tonyh/Documents/terroniafps/FPSterronia/Saved/Config/Windows/Engine.ini]
[2019.04.19-15.52.51:251][  0]LogConfig: Setting CVar [[s.MinBulkDataSizeForAsyncLoading:131072]]
[2019.04.19-15.52.51:251][  0]LogConfig: Setting CVar [[s.AsyncLoadingThreadEnabled:0]]
[2019.04.19-15.52.51:251][  0]LogConfig: Setting CVar [[s.EventDrivenLoaderEnabled:1]]
[2019.04.19-15.52.51:251][  0]LogConfig: Setting CVar [[s.WarnIfTimeLimitExceeded:0]]
[2019.04.19-15.52.51:251][  0]LogConfig: Setting CVar [[s.TimeLimitExceededMultiplier:1.5]]
[2019.04.19-15.52.51:251][  0]LogConfig: Setting CVar [[s.TimeLimitExceededMinTime:0.005]]
[2019.04.19-15.52.51:251][  0]LogConfig: Setting CVar [[s.UseBackgroundLevelStreaming:1]]
[2019.04.19-15.52.51:251][  0]LogConfig: Setting CVar [[s.PriorityAsyncLoadingExtraTime:15.0]]
[2019.04.19-15.52.51:251][  0]LogConfig: Setting CVar [[s.LevelStreamingActorsUpdateTimeLimit:5.0]]
[2019.04.19-15.52.51:251][  0]LogConfig: Setting CVar [[s.PriorityLevelStreamingActorsUpdateExtraTime:5.0]]
[2019.04.19-15.52.51:251][  0]LogConfig: Setting CVar [[s.LevelStreamingComponentsRegistrationGranularity:10]]
[2019.04.19-15.52.51:251][  0]LogConfig: Setting CVar [[s.UnregisterComponentsTimeLimit:1.0]]
[2019.04.19-15.52.51:251][  0]LogConfig: Setting CVar [[s.LevelStreamingComponentsUnregistrationGranularity:5]]
[2019.04.19-15.52.51:251][  0]LogConfig: Applying CVar settings from Section [/Script/Engine.GarbageCollectionSettings] File [C:/Users/tonyh/Documents/terroniafps/FPSterronia/Saved/Config/Windows/Engine.ini]
[2019.04.19-15.52.51:251][  0]LogConfig: Setting CVar [[gc.MaxObjectsNotConsideredByGC:1]]
[2019.04.19-15.52.51:251][  0]LogConfig: Setting CVar [[gc.SizeOfPermanentObjectPool:0]]
[2019.04.19-15.52.51:251][  0]LogConfig: Setting CVar [[gc.FlushStreamingOnGC:0]]
[2019.04.19-15.52.51:251][  0]LogConfig: Setting CVar [[gc.NumRetriesBeforeForcingGC:10]]
[2019.04.19-15.52.51:251][  0]LogConfig: Setting CVar [[gc.AllowParallelGC:1]]
[2019.04.19-15.52.51:251][  0]LogConfig: Setting CVar [[gc.TimeBetweenPurgingPendingKillObjects:61.1]]
[2019.04.19-15.52.51:251][  0]LogConfig: Setting CVar [[gc.MaxObjectsInEditor:8388607]]
[2019.04.19-15.52.51:251][  0]LogConfig: Setting CVar [[gc.IncrementalBeginDestroyEnabled:1]]
[2019.04.19-15.52.51:251][  0]LogConfig: Setting CVar [[gc.CreateGCClusters:1]]
[2019.04.19-15.52.51:251][  0]LogConfig: Setting CVar [[gc.MergeGCClusters:0]]
[2019.04.19-15.52.51:251][  0]LogConfig: Setting CVar [[gc.MinGCClusterSize:5]]
[2019.04.19-15.52.51:251][  0]LogConfig: Setting CVar [[gc.ActorClusteringEnabled:0]]
[2019.04.19-15.52.51:251][  0]LogConfig: Setting CVar [[gc.BlueprintClusteringEnabled:0]]
[2019.04.19-15.52.51:251][  0]LogConfig: Setting CVar [[gc.UseDisregardForGCOnDedicatedServers:0]]
[2019.04.19-15.52.51:251][  0]LogConfig: Applying CVar settings from Section [/Script/Engine.NetworkSettings] File [C:/Users/tonyh/Documents/terroniafps/FPSterronia/Saved/Config/Windows/Engine.ini]
[2019.04.19-15.52.51:251][  0]LogConfig: Applying CVar settings from Section [/Script/UnrealEd.CookerSettings] File [C:/Users/tonyh/Documents/terroniafps/FPSterronia/Saved/Config/Windows/Engine.ini]
[2019.04.19-15.52.51:253][  0]LogConfig: Applying CVar settings from Section [ViewDistanceQuality@3] File [C:/Users/tonyh/Documents/terroniafps/FPSterronia/Saved/Config/Windows/Scalability.ini]
[2019.04.19-15.52.51:253][  0]LogConfig: Setting CVar [[r.SkeletalMeshLODBias:0]]
[2019.04.19-15.52.51:253][  0]LogConfig: Setting CVar [[r.ViewDistanceScale:1.0]]
[2019.04.19-15.52.51:253][  0]LogConfig: Applying CVar settings from Section [AntiAliasingQuality@3] File [C:/Users/tonyh/Documents/terroniafps/FPSterronia/Saved/Config/Windows/Scalability.ini]
[2019.04.19-15.52.51:253][  0]LogConfig: Setting CVar [[r.PostProcessAAQuality:4]]
[2019.04.19-15.52.51:253][  0]LogConfig: Applying CVar settings from Section [ShadowQuality@3] File [C:/Users/tonyh/Documents/terroniafps/FPSterronia/Saved/Config/Windows/Scalability.ini]
[2019.04.19-15.52.51:253][  0]LogConfig: Setting CVar [[r.LightFunctionQuality:1]]
[2019.04.19-15.52.51:253][  0]LogConfig: Setting CVar [[r.ShadowQuality:5]]
[2019.04.19-15.52.51:253][  0]LogConfig: Setting CVar [[r.Shadow.CSM.MaxCascades:10]]
[2019.04.19-15.52.51:254][  0]LogConfig: Setting CVar [[r.Shadow.MaxResolution:2048]]
[2019.04.19-15.52.51:254][  0]LogConfig: Setting CVar [[r.Shadow.MaxCSMResolution:2048]]
[2019.04.19-15.52.51:254][  0]LogConfig: Setting CVar [[r.Shadow.RadiusThreshold:0.01]]
[2019.04.19-15.52.51:254][  0]LogConfig: Setting CVar [[r.Shadow.DistanceScale:1.0]]
[2019.04.19-15.52.51:254][  0]LogConfig: Setting CVar [[r.Shadow.CSM.TransitionScale:1.0]]
[2019.04.19-15.52.51:254][  0]LogConfig: Setting CVar [[r.Shadow.PreShadowResolutionFactor:1.0]]
[2019.04.19-15.52.51:254][  0]LogConfig: Setting CVar [[r.DistanceFieldShadowing:1]]
[2019.04.19-15.52.51:254][  0]LogConfig: Setting CVar [[r.DistanceFieldAO:1]]
[2019.04.19-15.52.51:254][  0]LogConfig: Setting CVar [[r.AOQuality:2]]
[2019.04.19-15.52.51:254][  0]LogConfig: Setting CVar [[r.VolumetricFog:1]]
[2019.04.19-15.52.51:254][  0]LogConfig: Setting CVar [[r.VolumetricFog.GridPixelSize:8]]
[2019.04.19-15.52.51:254][  0]LogConfig: Setting CVar [[r.VolumetricFog.GridSizeZ:128]]
[2019.04.19-15.52.51:254][  0]LogConfig: Setting CVar [[r.VolumetricFog.HistoryMissSupersampleCount:4]]
[2019.04.19-15.52.51:254][  0]LogConfig: Setting CVar [[r.LightMaxDrawDistanceScale:1]]
[2019.04.19-15.52.51:254][  0]LogConfig: Setting CVar [[r.CapsuleShadows:1]]
[2019.04.19-15.52.51:254][  0]LogConfig: Applying CVar settings from Section [PostProcessQuality@3] File [C:/Users/tonyh/Documents/terroniafps/FPSterronia/Saved/Config/Windows/Scalability.ini]
[2019.04.19-15.52.51:254][  0]LogConfig: Setting CVar [[r.MotionBlurQuality:4]]
[2019.04.19-15.52.51:254][  0]LogConfig: Setting CVar [[r.AmbientOcclusionMipLevelFactor:0.4]]
[2019.04.19-15.52.51:254][  0]LogConfig: Setting CVar [[r.AmbientOcclusionMaxQuality:100]]
[2019.04.19-15.52.51:254][  0]LogConfig: Setting CVar [[r.AmbientOcclusionLevels:-1]]
[2019.04.19-15.52.51:254][  0]LogConfig: Setting CVar [[r.AmbientOcclusionRadiusScale:1.0]]
[2019.04.19-15.52.51:254][  0]LogConfig: Setting CVar [[r.DepthOfFieldQuality:2]]
[2019.04.19-15.52.51:254][  0]LogConfig: Setting CVar [[r.RenderTargetPoolMin:400]]
[2019.04.19-15.52.51:254][  0]LogConfig: Setting CVar [[r.LensFlareQuality:2]]
[2019.04.19-15.52.51:254][  0]LogConfig: Setting CVar [[r.SceneColorFringeQuality:1]]
[2019.04.19-15.52.51:254][  0]LogConfig: Setting CVar [[r.EyeAdaptationQuality:2]]
[2019.04.19-15.52.51:254][  0]LogConfig: Setting CVar [[r.BloomQuality:5]]
[2019.04.19-15.52.51:254][  0]LogConfig: Setting CVar [[r.FastBlurThreshold:100]]
[2019.04.19-15.52.51:254][  0]LogConfig: Setting CVar [[r.Upscale.Quality:3]]
[2019.04.19-15.52.51:254][  0]LogConfig: Setting CVar [[r.Tonemapper.GrainQuantization:1]]
[2019.04.19-15.52.51:254][  0]LogConfig: Setting CVar [[r.LightShaftQuality:1]]
[2019.04.19-15.52.51:254][  0]LogConfig: Setting CVar [[r.Filter.SizeScale:1]]
[2019.04.19-15.52.51:254][  0]LogConfig: Setting CVar [[r.Tonemapper.Quality:5]]
[2019.04.19-15.52.51:254][  0]LogConfig: Setting CVar [[r.DOF.Gather.AccumulatorQuality:1        ; higher gathering accumulator quality]]
[2019.04.19-15.52.51:254][  0]LogConfig: Setting CVar [[r.DOF.Gather.PostfilterMethod:1          ; Median3x3 postfilering method]]
[2019.04.19-15.52.51:254][  0]LogConfig: Setting CVar [[r.DOF.Gather.EnableBokehSettings:0       ; no bokeh simulation when gathering]]
[2019.04.19-15.52.51:254][  0]LogConfig: Setting CVar [[r.DOF.Gather.RingCount:4                 ; medium number of samples when gathering]]
[2019.04.19-15.52.51:254][  0]LogConfig: Setting CVar [[r.DOF.Scatter.ForegroundCompositing:1    ; additive foreground scattering]]
[2019.04.19-15.52.51:254][  0]LogConfig: Setting CVar [[r.DOF.Scatter.BackgroundCompositing:2    ; additive background scattering]]
[2019.04.19-15.52.51:254][  0]LogConfig: Setting CVar [[r.DOF.Scatter.EnableBokehSettings:1      ; bokeh simulation when scattering]]
[2019.04.19-15.52.51:254][  0]LogConfig: Setting CVar [[r.DOF.Scatter.MaxSpriteRatio:0.1         ; only a maximum of 10% of scattered bokeh]]
[2019.04.19-15.52.51:254][  0]LogConfig: Setting CVar [[r.DOF.Recombine.Quality:1                ; cheap slight out of focus]]
[2019.04.19-15.52.51:254][  0]LogConfig: Setting CVar [[r.DOF.Recombine.EnableBokehSettings:0    ; no bokeh simulation on slight out of focus]]
[2019.04.19-15.52.51:254][  0]LogConfig: Setting CVar [[r.DOF.TemporalAAQuality:1                ; more stable temporal accumulation]]
[2019.04.19-15.52.51:254][  0]LogConfig: Setting CVar [[r.DOF.Kernel.MaxForegroundRadius:0.025]]
[2019.04.19-15.52.51:254][  0]LogConfig: Setting CVar [[r.DOF.Kernel.MaxBackgroundRadius:0.025]]
[2019.04.19-15.52.51:254][  0]LogConfig: Applying CVar settings from Section [TextureQuality@3] File [C:/Users/tonyh/Documents/terroniafps/FPSterronia/Saved/Config/Windows/Scalability.ini]
[2019.04.19-15.52.51:254][  0]LogConfig: Setting CVar [[r.Streaming.MipBias:0]]
[2019.04.19-15.52.51:254][  0]LogConfig: Setting CVar [[r.Streaming.AmortizeCPUToGPUCopy:0]]
[2019.04.19-15.52.51:254][  0]LogConfig: Setting CVar [[r.Streaming.MaxNumTexturesToStreamPerFrame:0]]
[2019.04.19-15.52.51:254][  0]LogConfig: Setting CVar [[r.Streaming.Boost:1]]
[2019.04.19-15.52.51:254][  0]LogConfig: Setting CVar [[r.MaxAnisotropy:8]]
[2019.04.19-15.52.51:254][  0]LogConfig: Setting CVar [[r.Streaming.LimitPoolSizeToVRAM:0]]
[2019.04.19-15.52.51:254][  0]LogConfig: Setting CVar [[r.Streaming.PoolSize:1000]]
[2019.04.19-15.52.51:254][  0]LogConfig: Setting CVar [[r.Streaming.MaxEffectiveScreenSize:0]]
[2019.04.19-15.52.51:254][  0]LogConfig: Applying CVar settings from Section [EffectsQuality@3] File [C:/Users/tonyh/Documents/terroniafps/FPSterronia/Saved/Config/Windows/Scalability.ini]
[2019.04.19-15.52.51:254][  0]LogConfig: Setting CVar [[r.TranslucencyLightingVolumeDim:64]]
[2019.04.19-15.52.51:254][  0]LogConfig: Setting CVar [[r.RefractionQuality:2]]
[2019.04.19-15.52.51:254][  0]LogConfig: Setting CVar [[r.SSR.Quality:3]]
[2019.04.19-15.52.51:254][  0]LogConfig: Setting CVar [[r.SceneColorFormat:4]]
[2019.04.19-15.52.51:254][  0]LogConfig: Setting CVar [[r.DetailMode:2]]
[2019.04.19-15.52.51:254][  0]LogConfig: Setting CVar [[r.TranslucencyVolumeBlur:1]]
[2019.04.19-15.52.51:254][  0]LogConfig: Setting CVar [[r.MaterialQualityLevel:1 ; High quality]]
[2019.04.19-15.52.51:255][  0]LogConfig: Setting CVar [[r.SSS.Scale:1]]
[2019.04.19-15.52.51:255][  0]LogConfig: Setting CVar [[r.SSS.SampleSet:2]]
[2019.04.19-15.52.51:255][  0]LogConfig: Setting CVar [[r.SSS.Quality:1]]
[2019.04.19-15.52.51:255][  0]LogConfig: Setting CVar [[r.SSS.HalfRes:1]]
[2019.04.19-15.52.51:255][  0]LogConfig: Setting CVar [[r.EmitterSpawnRateScale:1.0]]
[2019.04.19-15.52.51:255][  0]LogConfig: Setting CVar [[r.ParticleLightQuality:2]]
[2019.04.19-15.52.51:255][  0]LogConfig: Applying CVar settings from Section [FoliageQuality@3] File [C:/Users/tonyh/Documents/terroniafps/FPSterronia/Saved/Config/Windows/Scalability.ini]
[2019.04.19-15.52.51:255][  0]LogConfig: Setting CVar [[foliage.DensityScale:1.0]]
[2019.04.19-15.52.51:255][  0]LogConfig: Setting CVar [[grass.DensityScale:1.0]]
[2019.04.19-15.52.51:255][  0]LogInit: Selected Device Profile: [Windows]
[2019.04.19-15.52.51:255][  0]LogInit: Applying CVar settings loaded from the selected device profile: [Windows]
[2019.04.19-15.52.51:300][  0]LogHAL: Display: Platform has ~ 8 GB [8491270144 / 8589934592 / 8], which maps to Default [LargestMinGB=32, LargerMinGB=12, DefaultMinGB=8, SmallerMinGB=6, SmallestMinGB=0)
[2019.04.19-15.52.51:300][  0]LogConfig: Setting CVar [[r.Vulkan.UseRealUBs:1]]
[2019.04.19-15.52.51:300][  0]LogInit: Going up to parent DeviceProfile []
[2019.04.19-15.52.51:300][  0]LogConfig: Applying CVar settings from Section [ViewDistanceQuality@3] File [C:/Users/tonyh/Documents/terroniafps/FPSterronia/Saved/Config/Windows/Scalability.ini]
[2019.04.19-15.52.51:300][  0]LogConfig: Setting CVar [[r.SkeletalMeshLODBias:0]]
[2019.04.19-15.52.51:300][  0]LogConfig: Setting CVar [[r.ViewDistanceScale:1.0]]
[2019.04.19-15.52.51:300][  0]LogConfig: Applying CVar settings from Section [AntiAliasingQuality@3] File [C:/Users/tonyh/Documents/terroniafps/FPSterronia/Saved/Config/Windows/Scalability.ini]
[2019.04.19-15.52.51:300][  0]LogConfig: Setting CVar [[r.PostProcessAAQuality:4]]
[2019.04.19-15.52.51:300][  0]LogConfig: Applying CVar settings from Section [ShadowQuality@3] File [C:/Users/tonyh/Documents/terroniafps/FPSterronia/Saved/Config/Windows/Scalability.ini]
[2019.04.19-15.52.51:300][  0]LogConfig: Setting CVar [[r.LightFunctionQuality:1]]
[2019.04.19-15.52.51:300][  0]LogConfig: Setting CVar [[r.ShadowQuality:5]]
[2019.04.19-15.52.51:300][  0]LogConfig: Setting CVar [[r.Shadow.CSM.MaxCascades:10]]
[2019.04.19-15.52.51:300][  0]LogConfig: Setting CVar [[r.Shadow.MaxResolution:2048]]
[2019.04.19-15.52.51:300][  0]LogConfig: Setting CVar [[r.Shadow.MaxCSMResolution:2048]]
[2019.04.19-15.52.51:300][  0]LogConfig: Setting CVar [[r.Shadow.RadiusThreshold:0.01]]
[2019.04.19-15.52.51:300][  0]LogConfig: Setting CVar [[r.Shadow.DistanceScale:1.0]]
[2019.04.19-15.52.51:300][  0]LogConfig: Setting CVar [[r.Shadow.CSM.TransitionScale:1.0]]
[2019.04.19-15.52.51:300][  0]LogConfig: Setting CVar [[r.Shadow.PreShadowResolutionFactor:1.0]]
[2019.04.19-15.52.51:300][  0]LogConfig: Setting CVar [[r.DistanceFieldShadowing:1]]
[2019.04.19-15.52.51:300][  0]LogConfig: Setting CVar [[r.DistanceFieldAO:1]]
[2019.04.19-15.52.51:300][  0]LogConfig: Setting CVar [[r.AOQuality:2]]
[2019.04.19-15.52.51:300][  0]LogConfig: Setting CVar [[r.VolumetricFog:1]]
[2019.04.19-15.52.51:300][  0]LogConfig: Setting CVar [[r.VolumetricFog.GridPixelSize:8]]
[2019.04.19-15.52.51:300][  0]LogConfig: Setting CVar [[r.VolumetricFog.GridSizeZ:128]]
[2019.04.19-15.52.51:300][  0]LogConfig: Setting CVar [[r.VolumetricFog.HistoryMissSupersampleCount:4]]
[2019.04.19-15.52.51:300][  0]LogConfig: Setting CVar [[r.LightMaxDrawDistanceScale:1]]
[2019.04.19-15.52.51:300][  0]LogConfig: Setting CVar [[r.CapsuleShadows:1]]
[2019.04.19-15.52.51:300][  0]LogConfig: Applying CVar settings from Section [PostProcessQuality@3] File [C:/Users/tonyh/Documents/terroniafps/FPSterronia/Saved/Config/Windows/Scalability.ini]
[2019.04.19-15.52.51:300][  0]LogConfig: Setting CVar [[r.MotionBlurQuality:4]]
[2019.04.19-15.52.51:300][  0]LogConfig: Setting CVar [[r.AmbientOcclusionMipLevelFactor:0.4]]
[2019.04.19-15.52.51:300][  0]LogConfig: Setting CVar [[r.AmbientOcclusionMaxQuality:100]]
[2019.04.19-15.52.51:300][  0]LogConfig: Setting CVar [[r.AmbientOcclusionLevels:-1]]
[2019.04.19-15.52.51:300][  0]LogConfig: Setting CVar [[r.AmbientOcclusionRadiusScale:1.0]]
[2019.04.19-15.52.51:300][  0]LogConfig: Setting CVar [[r.DepthOfFieldQuality:2]]
[2019.04.19-15.52.51:300][  0]LogConfig: Setting CVar [[r.RenderTargetPoolMin:400]]
[2019.04.19-15.52.51:300][  0]LogConfig: Setting CVar [[r.LensFlareQuality:2]]
[2019.04.19-15.52.51:300][  0]LogConfig: Setting CVar [[r.SceneColorFringeQuality:1]]
[2019.04.19-15.52.51:300][  0]LogConfig: Setting CVar [[r.EyeAdaptationQuality:2]]
[2019.04.19-15.52.51:300][  0]LogConfig: Setting CVar [[r.BloomQuality:5]]
[2019.04.19-15.52.51:300][  0]LogConfig: Setting CVar [[r.FastBlurThreshold:100]]
[2019.04.19-15.52.51:300][  0]LogConfig: Setting CVar [[r.Upscale.Quality:3]]
[2019.04.19-15.52.51:300][  0]LogConfig: Setting CVar [[r.Tonemapper.GrainQuantization:1]]
[2019.04.19-15.52.51:300][  0]LogConfig: Setting CVar [[r.LightShaftQuality:1]]
[2019.04.19-15.52.51:300][  0]LogConfig: Setting CVar [[r.Filter.SizeScale:1]]
[2019.04.19-15.52.51:300][  0]LogConfig: Setting CVar [[r.Tonemapper.Quality:5]]
[2019.04.19-15.52.51:300][  0]LogConfig: Setting CVar [[r.DOF.Gather.AccumulatorQuality:1        ; higher gathering accumulator quality]]
[2019.04.19-15.52.51:300][  0]LogConfig: Setting CVar [[r.DOF.Gather.PostfilterMethod:1          ; Median3x3 postfilering method]]
[2019.04.19-15.52.51:300][  0]LogConfig: Setting CVar [[r.DOF.Gather.EnableBokehSettings:0       ; no bokeh simulation when gathering]]
[2019.04.19-15.52.51:300][  0]LogConfig: Setting CVar [[r.DOF.Gather.RingCount:4                 ; medium number of samples when gathering]]
[2019.04.19-15.52.51:300][  0]LogConfig: Setting CVar [[r.DOF.Scatter.ForegroundCompositing:1    ; additive foreground scattering]]
[2019.04.19-15.52.51:300][  0]LogConfig: Setting CVar [[r.DOF.Scatter.BackgroundCompositing:2    ; additive background scattering]]
[2019.04.19-15.52.51:300][  0]LogConfig: Setting CVar [[r.DOF.Scatter.EnableBokehSettings:1      ; bokeh simulation when scattering]]
[2019.04.19-15.52.51:300][  0]LogConfig: Setting CVar [[r.DOF.Scatter.MaxSpriteRatio:0.1         ; only a maximum of 10% of scattered bokeh]]
[2019.04.19-15.52.51:300][  0]LogConfig: Setting CVar [[r.DOF.Recombine.Quality:1                ; cheap slight out of focus]]
[2019.04.19-15.52.51:300][  0]LogConfig: Setting CVar [[r.DOF.Recombine.EnableBokehSettings:0    ; no bokeh simulation on slight out of focus]]
[2019.04.19-15.52.51:300][  0]LogConfig: Setting CVar [[r.DOF.TemporalAAQuality:1                ; more stable temporal accumulation]]
[2019.04.19-15.52.51:300][  0]LogConfig: Setting CVar [[r.DOF.Kernel.MaxForegroundRadius:0.025]]
[2019.04.19-15.52.51:301][  0]LogConfig: Setting CVar [[r.DOF.Kernel.MaxBackgroundRadius:0.025]]
[2019.04.19-15.52.51:301][  0]LogConfig: Applying CVar settings from Section [TextureQuality@3] File [C:/Users/tonyh/Documents/terroniafps/FPSterronia/Saved/Config/Windows/Scalability.ini]
[2019.04.19-15.52.51:301][  0]LogConfig: Setting CVar [[r.Streaming.MipBias:0]]
[2019.04.19-15.52.51:301][  0]LogConfig: Setting CVar [[r.Streaming.AmortizeCPUToGPUCopy:0]]
[2019.04.19-15.52.51:301][  0]LogConfig: Setting CVar [[r.Streaming.MaxNumTexturesToStreamPerFrame:0]]
[2019.04.19-15.52.51:301][  0]LogConfig: Setting CVar [[r.Streaming.Boost:1]]
[2019.04.19-15.52.51:301][  0]LogConfig: Setting CVar [[r.MaxAnisotropy:8]]
[2019.04.19-15.52.51:301][  0]LogConfig: Setting CVar [[r.Streaming.LimitPoolSizeToVRAM:0]]
[2019.04.19-15.52.51:301][  0]LogConfig: Setting CVar [[r.Streaming.PoolSize:1000]]
[2019.04.19-15.52.51:301][  0]LogConfig: Setting CVar [[r.Streaming.MaxEffectiveScreenSize:0]]
[2019.04.19-15.52.51:301][  0]LogConfig: Applying CVar settings from Section [EffectsQuality@3] File [C:/Users/tonyh/Documents/terroniafps/FPSterronia/Saved/Config/Windows/Scalability.ini]
[2019.04.19-15.52.51:301][  0]LogConfig: Setting CVar [[r.TranslucencyLightingVolumeDim:64]]
[2019.04.19-15.52.51:301][  0]LogConfig: Setting CVar [[r.RefractionQuality:2]]
[2019.04.19-15.52.51:301][  0]LogConfig: Setting CVar [[r.SSR.Quality:3]]
[2019.04.19-15.52.51:301][  0]LogConfig: Setting CVar [[r.SceneColorFormat:4]]
[2019.04.19-15.52.51:301][  0]LogConfig: Setting CVar [[r.DetailMode:2]]
[2019.04.19-15.52.51:301][  0]LogConfig: Setting CVar [[r.TranslucencyVolumeBlur:1]]
[2019.04.19-15.52.51:301][  0]LogConfig: Setting CVar [[r.MaterialQualityLevel:1 ; High quality]]
[2019.04.19-15.52.51:301][  0]LogConfig: Setting CVar [[r.SSS.Scale:1]]
[2019.04.19-15.52.51:301][  0]LogConfig: Setting CVar [[r.SSS.SampleSet:2]]
[2019.04.19-15.52.51:301][  0]LogConfig: Setting CVar [[r.SSS.Quality:1]]
[2019.04.19-15.52.51:301][  0]LogConfig: Setting CVar [[r.SSS.HalfRes:1]]
[2019.04.19-15.52.51:301][  0]LogConfig: Setting CVar [[r.EmitterSpawnRateScale:1.0]]
[2019.04.19-15.52.51:301][  0]LogConfig: Setting CVar [[r.ParticleLightQuality:2]]
[2019.04.19-15.52.51:301][  0]LogConfig: Applying CVar settings from Section [FoliageQuality@3] File [C:/Users/tonyh/Documents/terroniafps/FPSterronia/Saved/Config/Windows/Scalability.ini]
[2019.04.19-15.52.51:301][  0]LogConfig: Setting CVar [[foliage.DensityScale:1.0]]
[2019.04.19-15.52.51:301][  0]LogConfig: Setting CVar [[grass.DensityScale:1.0]]
[2019.04.19-15.52.51:301][  0]LogConfig: Applying CVar settings from Section [Startup] File [../../../Engine/Config/ConsoleVariables.ini]
[2019.04.19-15.52.51:301][  0]LogConfig: Setting CVar [[net.UseAdaptiveNetUpdateFrequency:0]]
[2019.04.19-15.52.51:301][  0]LogConfig: Applying CVar settings from Section [ConsoleVariables] File [C:/Users/tonyh/Documents/terroniafps/FPSterronia/Saved/Config/Windows/Engine.ini]
[2019.04.19-15.52.51:301][  0]LogInit: Computer: DESKTOP-Q34EHK4
[2019.04.19-15.52.51:301][  0]LogInit: User: tonyh
[2019.04.19-15.52.51:301][  0]LogInit: CPU Page size=4096, Cores=2
[2019.04.19-15.52.51:301][  0]LogInit: High frequency timer resolution =2.531252 MHz
[2019.04.19-15.52.51:302][  0]LogMemory: Memory total: Physical=7.9GB (8GB approx)
[2019.04.19-15.52.51:302][  0]LogMemory: Platform Memory Stats for Windows
[2019.04.19-15.52.51:302][  0]LogMemory: Process Physical Memory: 102.41 MB used, 102.41 MB peak
[2019.04.19-15.52.51:302][  0]LogMemory: Process Virtual Memory: 84.45 MB used, 84.45 MB peak
[2019.04.19-15.52.51:302][  0]LogMemory: Physical Memory: 3829.46 MB used,  4268.44 MB free, 8097.91 MB total
[2019.04.19-15.52.51:302][  0]LogMemory: Virtual Memory: 4628.96 MB used,  134213096.00 MB free, 134217728.00 MB total
[2019.04.19-15.52.51:325][  0]LogInit: Using OS detected language (it-IT).
[2019.04.19-15.52.51:325][  0]LogInit: Using OS detected locale (it-IT).
[2019.04.19-15.52.51:326][  0]LogTextLocalizationManager: No specific localization for 'it-IT' exists, so the 'it' localization will be used.
[2019.04.19-15.52.51:328][  0]LogStreaming: Display: Took  0.004s to InitEngineTextLocalization.
[2019.04.19-15.52.51:329][  0]LogInit: Setting process to per monitor DPI aware
[2019.04.19-15.52.51:374][  0]LogSlate: New Slate User Created.  User Index 0, Is Virtual User: 0
[2019.04.19-15.52.51:374][  0]LogSlate: Slate User Registered.  User Index 0, Is Virtual User: 0
[2019.04.19-15.52.51:644][  0]LogHMD: Failed to initialize OpenVR with code 110
[2019.04.19-15.52.51:644][  0]LogD3D11RHI: D3D11 adapters:
[2019.04.19-15.52.51:695][  0]LogD3D11RHI:    0. 'NVIDIA GeForce 940MX' (Feature Level 11_0)
[2019.04.19-15.52.51:695][  0]LogD3D11RHI:       2020/0/4048 MB DedicatedVideo/DedicatedSystem/SharedSystem, Outputs:1, VendorId:0x10de
[2019.04.19-15.52.51:706][  0]LogD3D11RHI:    1. 'Intel(R) HD Graphics 520' (Feature Level 11_0)
[2019.04.19-15.52.51:706][  0]LogD3D11RHI:       128/0/4048 MB DedicatedVideo/DedicatedSystem/SharedSystem, Outputs:0, VendorId:0x8086
[2019.04.19-15.52.51:708][  0]LogD3D11RHI:    2. 'Microsoft Basic Render Driver' (Feature Level 11_0)
[2019.04.19-15.52.51:708][  0]LogD3D11RHI:       0/0/4048 MB DedicatedVideo/DedicatedSystem/SharedSystem, Outputs:0, VendorId:0x1414
[2019.04.19-15.52.51:708][  0]LogD3D11RHI: Chosen D3D11 Adapter: 0
[2019.04.19-15.52.51:750][  0]LogD3D11RHI: Creating new Direct3DDevice
[2019.04.19-15.52.51:750][  0]LogD3D11RHI:     GPU DeviceId: 0x134d (for the marketing name, search the web for "GPU Device Id")
[2019.04.19-15.52.51:750][  0]LogWindows: EnumDisplayDevices:
[2019.04.19-15.52.51:750][  0]LogWindows:    0. 'Intel(R) HD Graphics 520' (P:1 D:1)
[2019.04.19-15.52.51:750][  0]LogWindows:    1. 'Intel(R) HD Graphics 520' (P:0 D:0)
[2019.04.19-15.52.51:751][  0]LogWindows:    2. 'Intel(R) HD Graphics 520' (P:0 D:0)
[2019.04.19-15.52.51:751][  0]LogWindows: DebugString: PrimaryIsNotTheChoosenAdapter PrimaryIsNotTheChoosenAdapter PrimaryIsNotTheChoosenAdapter FoundDriverCount:0 
[2019.04.19-15.52.51:751][  0]LogD3D11RHI:     Adapter Name: NVIDIA GeForce 940MX
[2019.04.19-15.52.51:751][  0]LogD3D11RHI:   Driver Version: Unknown (internal:Unknown, unified:Unknown)
[2019.04.19-15.52.51:751][  0]LogD3D11RHI:      Driver Date: Unknown
[2019.04.19-15.52.51:751][  0]LogRHI: Texture pool is 1414 MB (70% of 2020 MB)
[2019.04.19-15.52.51:782][  0]LogD3D11RHI: Async texture creation enabled
[2019.04.19-15.52.51:801][  0]LogD3D11RHI: GPU Timing Frequency: 1000.000000 (Debug: 2 2)
[2019.04.19-15.52.52:182][  0]LogTemp: Display: Loaded TP AllDesktopTargetPlatform
[2019.04.19-15.52.52:199][  0]LogTemp: Display: Loaded TP MacClientTargetPlatform
[2019.04.19-15.52.52:215][  0]LogTemp: Display: Loaded TP MacNoEditorTargetPlatform
[2019.04.19-15.52.52:232][  0]LogTemp: Display: Loaded TP MacServerTargetPlatform
[2019.04.19-15.52.52:248][  0]LogTemp: Display: Loaded TP MacTargetPlatform
[2019.04.19-15.52.52:265][  0]LogTemp: Display: Loaded TP WindowsClientTargetPlatform
[2019.04.19-15.52.52:282][  0]LogTemp: Display: Loaded TP WindowsNoEditorTargetPlatform
[2019.04.19-15.52.52:299][  0]LogTemp: Display: Loaded TP WindowsServerTargetPlatform
[2019.04.19-15.52.52:307][  0]LogTemp: Display: Loaded TP WindowsTargetPlatform
[2019.04.19-15.52.52:400][  0]LogTemp: Display: Loaded TP AndroidTargetPlatform
[2019.04.19-15.52.52:400][  0]LogTemp: Display: Loaded TP AndroidTargetPlatform
[2019.04.19-15.52.52:400][  0]LogTemp: Display: Loaded TP AndroidTargetPlatform
[2019.04.19-15.52.52:400][  0]LogTemp: Display: Loaded TP AndroidTargetPlatform
[2019.04.19-15.52.52:400][  0]LogTemp: Display: Loaded TP AndroidTargetPlatform
[2019.04.19-15.52.52:400][  0]LogTemp: Display: Loaded TP AndroidTargetPlatform
[2019.04.19-15.52.52:400][  0]LogTemp: Display: Loaded TP AndroidTargetPlatform
[2019.04.19-15.52.52:400][  0]LogTemp: Display: Loaded TP AndroidTargetPlatform
[2019.04.19-15.52.52:400][  0]LogTemp: Display: Loaded TP AndroidTargetPlatform
[2019.04.19-15.52.52:400][  0]LogTemp: Display: Loaded TP AndroidTargetPlatform
[2019.04.19-15.52.52:400][  0]LogTemp: Display: Loaded TP AndroidTargetPlatform
[2019.04.19-15.52.52:400][  0]LogTemp: Display: Loaded TP AndroidTargetPlatform
[2019.04.19-15.52.52:400][  0]LogTemp: Display: Loaded TP AndroidTargetPlatform
[2019.04.19-15.52.52:400][  0]LogTemp: Display: Loaded TP AndroidTargetPlatform
[2019.04.19-15.52.52:400][  0]LogTemp: Display: Loaded TP AndroidTargetPlatform
[2019.04.19-15.52.52:400][  0]LogTemp: Display: Loaded TP AndroidTargetPlatform
[2019.04.19-15.52.52:401][  0]LogTemp: Display: Loaded TP AndroidTargetPlatform
[2019.04.19-15.52.52:401][  0]LogTemp: Display: Loaded TP AndroidTargetPlatform
[2019.04.19-15.52.52:402][  0]LogTemp: Display: Loaded TP HTML5TargetPlatform
[2019.04.19-15.52.52:468][  0]LogTemp: Display: Loaded TP IOSTargetPlatform
[2019.04.19-15.52.52:468][  0]LogTemp: Display: Loaded TP IOSTargetPlatform
[2019.04.19-15.52.52:495][  0]LogTemp: Display: Loaded TP TVOSTargetPlatform
[2019.04.19-15.52.52:495][  0]LogTemp: Display: Loaded TP TVOSTargetPlatform
[2019.04.19-15.52.52:509][  0]LogTemp: Display: Loaded TP LinuxClientTargetPlatform
[2019.04.19-15.52.52:522][  0]LogTemp: Display: Loaded TP LinuxNoEditorTargetPlatform
[2019.04.19-15.52.52:536][  0]LogTemp: Display: Loaded TP LinuxServerTargetPlatform
[2019.04.19-15.52.52:550][  0]LogTemp: Display: Loaded TP LinuxTargetPlatform
[2019.04.19-15.52.52:599][  0]LogTemp: Display: Loaded TP LuminTargetPlatform
[2019.04.19-15.52.52:599][  0]LogTemp: Display: Loaded TP LuminTargetPlatform
[2019.04.19-15.52.52:599][  0]LogTargetPlatformManager: Display: Building Assets For Windows
[2019.04.19-15.52.52:675][  0]LogShaderCompilers: Guid format shader working directory is -17 characters bigger than the processId version (../../../../../../Users/tonyh/Documents/terroniafps/FPSterronia/Intermediate/Shaders/WorkingDirectory/4412/).
[2019.04.19-15.52.52:675][  0]LogShaderCompilers: Cleaned the shader compiler working directory 'C:/Users/tonyh/AppData/Local/Temp/UnrealShaderWorkingDir/B6402B88488382532FE8E5864CC3DE21/'.
[2019.04.19-15.52.52:678][  0]LogXGEController: Cannot use XGE Controller as Incredibuild is not installed on this machine.
[2019.04.19-15.52.52:678][  0]LogShaderCompilers: Cannot use XGE Shader Compiler as Incredibuild is not installed on this machine.
[2019.04.19-15.52.52:678][  0]LogShaderCompilers: Display: Using Local Shader Compiler.
[2019.04.19-15.52.53:290][  0]LogDerivedDataCache: Display: Max Cache Size: 512 MB
[2019.04.19-15.52.53:348][  0]LogDerivedDataCache: Loaded boot cache 0.06s 71MB C:/Users/tonyh/AppData/Local/UnrealEngine/4.21/DerivedDataCache/Boot.ddc.
[2019.04.19-15.52.53:348][  0]LogDerivedDataCache: Display: Loaded Boot cache: C:/Users/tonyh/AppData/Local/UnrealEngine/4.21/DerivedDataCache/Boot.ddc
[2019.04.19-15.52.53:348][  0]LogDerivedDataCache: FDerivedDataBackendGraph:  Pak pak cache file ../../../../../../Users/tonyh/Documents/terroniafps/FPSterronia/DerivedDataCache/DDC.ddp not found, will not use a pak cache.
[2019.04.19-15.52.53:348][  0]LogDerivedDataCache: Unable to find inner node Pak for hierarchical cache Hierarchy.
[2019.04.19-15.52.53:348][  0]LogDerivedDataCache: FDerivedDataBackendGraph:  CompressedPak pak cache file ../../../../../../Users/tonyh/Documents/terroniafps/FPSterronia/DerivedDataCache/Compressed.ddp not found, will not use a pak cache.
[2019.04.19-15.52.53:348][  0]LogDerivedDataCache: Unable to find inner node CompressedPak for hierarchical cache Hierarchy.
[2019.04.19-15.52.53:367][  0]LogDerivedDataCache: Display: Pak cache opened for reading ../../../Engine/DerivedDataCache/Compressed.ddp.
[2019.04.19-15.52.53:367][  0]LogDerivedDataCache: FDerivedDataBackendGraph:  EnterprisePak pak cache file ../../../Enterprise/DerivedDataCache/Compressed.ddp not found, will not use a pak cache.
[2019.04.19-15.52.53:367][  0]LogDerivedDataCache: Unable to find inner node EnterprisePak for hierarchical cache Hierarchy.
[2019.04.19-15.52.53:379][  0]LogDerivedDataCache: Using Local data cache path C:/Users/tonyh/AppData/Local/UnrealEngine/Common/DerivedDataCache: Writable
[2019.04.19-15.52.53:379][  0]LogDerivedDataCache: Shared data cache path not found in *engine.ini, will not use an Shared cache.
[2019.04.19-15.52.53:379][  0]LogDerivedDataCache: Unable to find inner node Shared for hierarchical cache Hierarchy.
[2019.04.19-15.52.53:408][  0]LogMaterial: Verifying Global Shaders for PCD3D_SM5
[2019.04.19-15.52.53:410][  0]LogSlate: Using FreeType 2.6.0
[2019.04.19-15.52.53:410][  0]LogSlate: SlateFontServices - WITH_FREETYPE: 1, WITH_HARFBUZZ: 1
[2019.04.19-15.52.53:508][  0]LogAssetRegistry: FAssetRegistry took 0.0355 seconds to start up
[2019.04.19-15.52.53:907][  0]LogInit: Selected Device Profile: [Windows]
[2019.04.19-15.52.54:084][  0]LogSimplygon: Simplygon DLL not present - disabling.
[2019.04.19-15.52.54:090][  0]LogMeshReduction: Using SimplygonSwarm for distributed automatic mesh merging
[2019.04.19-15.52.54:090][  0]LogMeshReduction: Using ProxyLODMeshReduction for automatic mesh merging
[2019.04.19-15.52.54:090][  0]LogMeshReduction: Using QuadricMeshReduction for automatic static mesh reduction
[2019.04.19-15.52.54:090][  0]LogMeshReduction: No automatic skeletal mesh reduction module available
[2019.04.19-15.52.54:106][  0]LogNetVersion: FPSterronia 1.0.0, NetCL: 4541578, EngineNetVer: 5, GameNetVer: 0 (Checksum: 3335960123)
[2019.04.19-15.52.54:797][  0]LogPackageLocalizationCache: Processed 11 localized package path(s) for 2 prioritized culture(s) in 0.135828 seconds
[2019.04.19-15.52.54:805][  0]LogUObjectArray: 39775 objects as part of root set at end of initial load.
[2019.04.19-15.52.54:805][  0]LogUObjectAllocator: 6914664 out of 0 bytes used by permanent object pool.
[2019.04.19-15.52.54:805][  0]LogUObjectArray: CloseDisregardForGC: 0/0 objects in disregard for GC pool
[2019.04.19-15.52.55:982][  0]LogTcpMessaging: Initializing TcpMessaging bridge
[2019.04.19-15.52.55:997][  0]LogUdpMessaging: Initializing bridge on interface 0.0.0.0:0 to multicast group 230.0.0.1:6666.
[2019.04.19-15.52.56:860][  0]SourceControl: Source control is disabled
[2019.04.19-15.52.56:860][  0]SourceControl: Source control is disabled
[2019.04.19-15.52.56:862][  0]SourceControl: Source control is disabled
[2019.04.19-15.52.56:863][  0]SourceControl: Source control is disabled
[2019.04.19-15.52.57:033][  0]LogAndroidPermission: UAndroidPermissionCallbackProxy::GetInstance
[2019.04.19-15.52.57:094][  0]LogOcInput: OculusInput pre-init called
[2019.04.19-15.52.57:242][  0]LogEngine: Initializing Engine...
[2019.04.19-15.52.57:243][  0]LogHMD: Failed to initialize OpenVR with code 110
[2019.04.19-15.52.57:244][  0]LogStats: UGameplayTagsManager::ConstructGameplayTagTree: ImportINI prefixes -  0.000 s
[2019.04.19-15.52.57:244][  0]LogStats: UGameplayTagsManager::ConstructGameplayTagTree: Construct from data asset -  0.000 s
[2019.04.19-15.52.57:245][  0]LogStats: UGameplayTagsManager::ConstructGameplayTagTree: ImportINI -  0.000 s
[2019.04.19-15.52.57:245][  0]LogStats: UGameplayTagsManager::ConstructGameplayTagTree: GameplayTagTreeChangedEvent.Broadcast -  0.000 s
[2019.04.19-15.52.57:514][  0]LogInit: Initializing FReadOnlyCVARCache
[2019.04.19-15.52.57:533][  0]LogAIModule: Creating AISystem for world Untitled
[2019.04.19-15.52.57:549][  0]LogInit: XAudio2 using 'Speakers (Conexant SmartAudio HD)' : 2 channels at 48 kHz using 32 bits per sample (channel mask 0x3)
[2019.04.19-15.52.58:571][  0]LogInit: FAudioDevice initialized.
[2019.04.19-15.52.58:572][  0]LogNetVersion: Set ProjectVersion to 1.0.0.0. Version Checksum will be recalculated on next use.
[2019.04.19-15.52.58:993][  0]LogDerivedDataCache: Saved boot cache 0.42s 71MB C:/Users/tonyh/AppData/Local/UnrealEngine/4.21/DerivedDataCache/Boot.ddc.
[2019.04.19-15.52.59:007][  0]LogInit: Texture streaming: Enabled
[2019.04.19-15.52.59:029][  0]LogEngineSessionManager: EngineSessionManager initialized
[2019.04.19-15.52.59:050][  0]LogInit: Transaction tracking system initialized
[2019.04.19-15.52.59:086][  0]BlueprintLog: New page: Editor Load
[2019.04.19-15.52.59:197][  0]LocalizationService: Localization service is disabled
[2019.04.19-15.53.00:079][  0]LogCook: Display: Max memory allowance for cook 16384mb min free memory 0mb
[2019.04.19-15.53.00:080][  0]LogCook: Display: Mobile HDR setting 1
[2019.04.19-15.53.00:080][  0]LogGameplayTags: Display: UGameplayTagsManager::DoneAddingNativeTags. DelegateIsBound: 0
[2019.04.19-15.53.00:080][  0]LogStats: UGameplayTagsManager::ConstructGameplayTagTree: ImportINI prefixes -  0.000 s
[2019.04.19-15.53.00:080][  0]LogStats: UGameplayTagsManager::ConstructGameplayTagTree: Construct from data asset -  0.000 s
[2019.04.19-15.53.00:080][  0]LogStats: UGameplayTagsManager::ConstructGameplayTagTree: ImportINI -  0.000 s
[2019.04.19-15.53.00:080][  0]LogStats: UGameplayTagsManager::ConstructGameplayTagTree: GameplayTagTreeChangedEvent.Broadcast -  0.000 s
[2019.04.19-15.53.00:232][  0]LogFileCache: Scanning file cache for directory 'C:/Users/tonyh/Documents/terroniafps/FPSterronia/Content/' took 0.04s
[2019.04.19-15.53.00:232][  0]SourceControl: Source control is disabled
[2019.04.19-15.53.00:233][  0]Cmd: MAP LOAD FILE="../../../../../../Users/tonyh/Documents/terroniafps/FPSterronia/Content/FirstPersonBP/Maps/FirstPersonExampleMap.umap" TEMPLATE=0 SHOWPROGRESS=1 FEATURELEVEL=3
[2019.04.19-15.53.00:288][  0]LightingResults: New page: Lighting Build
[2019.04.19-15.53.00:292][  0]MapCheck: New page: Map Check
[2019.04.19-15.53.00:292][  0]LightingResults: New page: Lighting Build
[2019.04.19-15.53.00:682][  0]LogLinker: Warning: Can't find file '/Game/Torretta/basetexture'
[2019.04.19-15.53.00:682][  0]LogLinker: Warning: Can't find file for asset '/Game/Torretta/basetexture' while loading ../../../../../../Users/tonyh/Documents/terroniafps/FPSterronia/Content/FPSLabo/Assets/TeamNutrie/Torretta/torrettamesh_Torus.uasset.
[2019.04.19-15.53.00:682][  0]LoadErrors: Error: /Game/FPSLabo/Assets/TeamNutrie/Torretta/torrettamesh_Torus : Can't find file for asset. /Game/Torretta/basetexture
[2019.04.19-15.53.00:682][  0]LogLinker: Warning: Can't find file '/Game/Torretta/basetexture'
[2019.04.19-15.53.00:682][  0]LogLinker: Warning: Can't find file for asset '/Game/Torretta/basetexture' while loading ../../../../../../Users/tonyh/Documents/terroniafps/FPSterronia/Content/FPSLabo/Assets/TeamNutrie/Torretta/torrettamesh_Torus.uasset.
[2019.04.19-15.53.00:682][  0]LoadErrors: Error: /Game/FPSLabo/Assets/TeamNutrie/Torretta/torrettamesh_Torus : Can't find file for asset. /Game/Torretta/basetexture
[2019.04.19-15.53.00:684][  0]LogLinker: Warning: Can't find file '/Game/Torretta/Sopratexture'
[2019.04.19-15.53.00:684][  0]LogLinker: Warning: Can't find file for asset '/Game/Torretta/Sopratexture' while loading ../../../../../../Users/tonyh/Documents/terroniafps/FPSterronia/Content/FPSLabo/Assets/TeamNutrie/Torretta/torrettamesh_Torus_001.uasset.
[2019.04.19-15.53.00:684][  0]LoadErrors: Error: /Game/FPSLabo/Assets/TeamNutrie/Torretta/torrettamesh_Torus_001 : Can't find file for asset. /Game/Torretta/Sopratexture
[2019.04.19-15.53.00:684][  0]LogLinker: Warning: Can't find file '/Game/Torretta/Sopratexture'
[2019.04.19-15.53.00:684][  0]LogLinker: Warning: Can't find file for asset '/Game/Torretta/Sopratexture' while loading ../../../../../../Users/tonyh/Documents/terroniafps/FPSterronia/Content/FPSLabo/Assets/TeamNutrie/Torretta/torrettamesh_Torus_001.uasset.
[2019.04.19-15.53.00:684][  0]LoadErrors: Error: /Game/FPSLabo/Assets/TeamNutrie/Torretta/torrettamesh_Torus_001 : Can't find file for asset. /Game/Torretta/Sopratexture
[2019.04.19-15.53.01:048][  0]LogBlueprint: Warning: [Compiler FPCgiusto] InputAction Event references unknown Action 'ClimbLadder' for  InputAction ClimbLadder
[2019.04.19-15.53.01:049][  0]LogBlueprint: Warning: [Compiler FPCgiusto] InputAction Event references unknown Action 'Sprint' for  InputAction Sprint
[2019.04.19-15.53.01:159][  0]LogBlueprint: Warning: [Compiler FPCgiusto] [0012,64] Compile of FPCgiusto successful, but with 2 Warning(s) [in 205 ms] (/Game/FPSLabo/Assets/TeamNutrie/FirstPersonCharacter/BP/FPCgiusto.FPCgiusto)
[2019.04.19-15.53.01:210][  0]LogBlueprint: Warning: [Compiler ThirdPerson_AnimBP] Idle/Run to Crouch  will never be taken, please connect something to  Can Enter Transition
[2019.04.19-15.53.01:210][  0]LogBlueprint: Warning: [Compiler ThirdPerson_AnimBP] Crouch to Idle/Run  will never be taken, please connect something to  Can Enter Transition
[2019.04.19-15.53.01:214][  0]LogBlueprint: Warning: [Compiler ThirdPerson_AnimBP] [0012,69] Compile of ThirdPerson_AnimBP successful, but with 2 Warning(s) [in 11 ms] (/Game/FPSLabo/Assets/TeamOrnitorinchi/AI/Mannequin/Animations/ThirdPerson_AnimBP.ThirdPerson_AnimBP)
[2019.04.19-15.53.01:611][  0]LogBlueprint: Warning: [Compiler ShowWidgetTriggerBox] Could not find a variable named "WidgetVisible" in 'FirstPersonCharacter_C'.
Make sure 'FirstPersonCharacter_C' has been compiled for  Set WidgetVisible
[2019.04.19-15.53.01:612][  0]LogBlueprint: Warning: [Compiler ShowWidgetTriggerBox] Could not find a variable named "WidgetVisible" in 'FirstPersonCharacter_C'.
Make sure 'FirstPersonCharacter_C' has been compiled for  Set WidgetVisible
[2019.04.19-15.53.01:613][  0]LogBlueprint: Error: [Compiler ShowWidgetTriggerBox] The property associated with  Widget Visible  could not be found in '/Game/FPSLabo/Assets/TeamLontre/BoxDialogo/ShowWidgetTriggerBox.ShowWidgetTriggerBox_C'
[2019.04.19-15.53.01:613][  0]LogBlueprint: Error: [Compiler ShowWidgetTriggerBox] The property associated with  Widget Visible  could not be found in '/Game/FPSLabo/Assets/TeamLontre/BoxDialogo/ShowWidgetTriggerBox.ShowWidgetTriggerBox_C'
[2019.04.19-15.53.01:614][  0]LogBlueprint: Warning: [Compiler ShowWidgetTriggerBox] [0013,09] Compile of ShowWidgetTriggerBox failed. 2 Fatal Issue(s) 2 Warning(s) [in 4 ms] (/Game/FPSLabo/Assets/TeamLontre/BoxDialogo/ShowWidgetTriggerBox.ShowWidgetTriggerBox)
[2019.04.19-15.53.01:823][  0]LogLinker: Warning: Can't find file '/Script/ApexDestruction'
[2019.04.19-15.53.01:823][  0]LogLinker: Warning: Can't find file for asset '/Script/ApexDestruction' while loading ../../../../../../Users/tonyh/Documents/terroniafps/FPSterronia/Content/FirstPersonBP/Maps/FirstPersonExampleMap.umap.
[2019.04.19-15.53.01:823][  0]LoadErrors: Error: /Game/FirstPersonBP/Maps/FirstPersonExampleMap : Can't find file for asset. /Script/ApexDestruction
[2019.04.19-15.53.01:823][  0]LogLinker: Warning: Can't find file '/Script/ApexDestruction'
[2019.04.19-15.53.01:823][  0]LogLinker: Warning: Can't find file for asset '/Script/ApexDestruction' while loading ../../../../../../Users/tonyh/Documents/terroniafps/FPSterronia/Content/FirstPersonBP/Maps/FirstPersonExampleMap.umap.
[2019.04.19-15.53.01:823][  0]LoadErrors: Error: /Game/FirstPersonBP/Maps/FirstPersonExampleMap : Can't find file for asset. /Script/ApexDestruction
[2019.04.19-15.53.01:825][  0]LogLinker: Warning: Can't find file '/Script/ApexDestruction'
[2019.04.19-15.53.01:825][  0]LogLinker: Warning: Can't find file for asset '/Script/ApexDestruction' while loading ../../../../../../Users/tonyh/Documents/terroniafps/FPSterronia/Content/FirstPersonBP/Maps/FirstPersonExampleMap.umap.
[2019.04.19-15.53.01:825][  0]LoadErrors: Error: /Game/FirstPersonBP/Maps/FirstPersonExampleMap : Can't find file for asset. /Script/ApexDestruction
[2019.04.19-15.53.01:825][  0]LogLinker: Warning: Can't find file '/Script/ApexDestruction'
[2019.04.19-15.53.01:825][  0]LogLinker: Warning: Can't find file for asset '/Script/ApexDestruction' while loading ../../../../../../Users/tonyh/Documents/terroniafps/FPSterronia/Content/FirstPersonBP/Maps/FirstPersonExampleMap.umap.
[2019.04.19-15.53.01:825][  0]LoadErrors: Error: /Game/FirstPersonBP/Maps/FirstPersonExampleMap : Can't find file for asset. /Script/ApexDestruction
[2019.04.19-15.53.01:827][  0]LogLinker: Warning: Can't find file '/Script/ApexDestruction'
[2019.04.19-15.53.01:827][  0]LogLinker: Warning: Can't find file for asset '/Script/ApexDestruction' while loading ../../../../../../Users/tonyh/Documents/terroniafps/FPSterronia/Content/FPSLabo/Lezioni/Geometry/1M_Cube_0_DM.uasset.
[2019.04.19-15.53.01:827][  0]LoadErrors: Error: /Game/FPSLabo/Lezioni/Geometry/1M_Cube_0_DM : Can't find file for asset. /Script/ApexDestruction
[2019.04.19-15.53.01:827][  0]LogLinker: Warning: Can't find file '/Script/ApexDestruction'
[2019.04.19-15.53.01:827][  0]LogLinker: Warning: Can't find file for asset '/Script/ApexDestruction' while loading ../../../../../../Users/tonyh/Documents/terroniafps/FPSterronia/Content/FPSLabo/Lezioni/Geometry/1M_Cube_0_DM.uasset.
[2019.04.19-15.53.01:827][  0]LoadErrors: Error: /Game/FPSLabo/Lezioni/Geometry/1M_Cube_0_DM : Can't find file for asset. /Script/ApexDestruction
[2019.04.19-15.53.01:831][  0]LogLinker: Warning: Can't find file '/Script/ApexDestruction'
[2019.04.19-15.53.01:831][  0]LogLinker: Warning: Can't find file for asset '/Script/ApexDestruction' while loading ../../../../../../Users/tonyh/Documents/terroniafps/FPSterronia/Content/FPSLabo/Lezioni/Geometry/1M_Cube_0_DM.uasset.
[2019.04.19-15.53.01:832][  0]LoadErrors: Error: /Game/FPSLabo/Lezioni/Geometry/1M_Cube_0_DM : Can't find file for asset. /Script/ApexDestruction
[2019.04.19-15.53.01:832][  0]LogLinker: Warning: Can't find file '/Script/ApexDestruction'
[2019.04.19-15.53.01:832][  0]LogLinker: Warning: Can't find file for asset '/Script/ApexDestruction' while loading ../../../../../../Users/tonyh/Documents/terroniafps/FPSterronia/Content/FirstPersonBP/Maps/FirstPersonExampleMap.umap.
[2019.04.19-15.53.01:832][  0]LoadErrors: Error: /Game/FirstPersonBP/Maps/FirstPersonExampleMap : Can't find file for asset. /Script/ApexDestruction
[2019.04.19-15.53.01:832][  0]LogLinker: Warning: Can't find file '/Script/ApexDestruction'
[2019.04.19-15.53.01:832][  0]LogLinker: Warning: Can't find file for asset '/Script/ApexDestruction' while loading ../../../../../../Users/tonyh/Documents/terroniafps/FPSterronia/Content/FirstPersonBP/Maps/FirstPersonExampleMap.umap.
[2019.04.19-15.53.01:832][  0]LoadErrors: Error: /Game/FirstPersonBP/Maps/FirstPersonExampleMap : Can't find file for asset. /Script/ApexDestruction
[2019.04.19-15.53.01:832][  0]LogLinker: Warning: Unable to load 1M_Cube_0_DM with outer Package /Game/FPSLabo/Lezioni/Geometry/1M_Cube_0_DM because its class does not exist
[2019.04.19-15.53.01:832][  0]LogLinker: Warning: Can't find file '/Script/ApexDestruction'
[2019.04.19-15.53.01:832][  0]LogLinker: Warning: Can't find file for asset '/Script/ApexDestruction' while loading ../../../../../../Users/tonyh/Documents/terroniafps/FPSterronia/Content/FirstPersonBP/Maps/FirstPersonExampleMap.umap.
[2019.04.19-15.53.01:832][  0]LoadErrors: Error: /Game/FirstPersonBP/Maps/FirstPersonExampleMap : Can't find file for asset. /Script/ApexDestruction
[2019.04.19-15.53.01:832][  0]LogLinker: Warning: Can't find file '/Script/ApexDestruction'
[2019.04.19-15.53.01:832][  0]LogLinker: Warning: Can't find file for asset '/Script/ApexDestruction' while loading ../../../../../../Users/tonyh/Documents/terroniafps/FPSterronia/Content/FirstPersonBP/Maps/FirstPersonExampleMap.umap.
[2019.04.19-15.53.01:832][  0]LoadErrors: Error: /Game/FirstPersonBP/Maps/FirstPersonExampleMap : Can't find file for asset. /Script/ApexDestruction
[2019.04.19-15.53.02:376][  0]LogBlueprint: Warning: [Compiler WidgetToShow] Could not find a variable named "WidgetVisible" in 'FirstPersonCharacter_C'.
Make sure 'FirstPersonCharacter_C' has been compiled for  Get WidgetVisible
[2019.04.19-15.53.02:377][  0]LogBlueprint: Error: [Compiler WidgetToShow] The property associated with  Widget Visible  could not be found in '/Game/FPSLabo/Assets/TeamLontre/BoxDialogo/WidgetToShow.WidgetToShow_C'
[2019.04.19-15.53.02:378][  0]LogBlueprint: Warning: [Compiler WidgetToShow] [0013,86] Compile of WidgetToShow failed. 1 Fatal Issue(s) 1 Warning(s) [in 2 ms] (/Game/FPSLabo/Assets/TeamLontre/BoxDialogo/WidgetToShow.WidgetToShow)
[2019.04.19-15.53.02:383][  0]LogLinker: Warning: Can't find file '/Script/ApexDestruction'
[2019.04.19-15.53.02:383][  0]LogLinker: Warning: Can't find file for asset '/Script/ApexDestruction' while loading ../../../../../../Users/tonyh/Documents/terroniafps/FPSterronia/Content/FirstPersonBP/Maps/FirstPersonExampleMap.umap.
[2019.04.19-15.53.02:383][  0]LoadErrors: Error: /Game/FirstPersonBP/Maps/FirstPersonExampleMap : Can't find file for asset. /Script/ApexDestruction
[2019.04.19-15.53.02:406][  0]LogLinker: Warning: Can't find file '/Script/ApexDestruction'
[2019.04.19-15.53.02:406][  0]LogLinker: Warning: Can't find file for asset '/Script/ApexDestruction' while loading NULL.
[2019.04.19-15.53.02:406][  0]LogLinker: Warning: Can't find file '/Script/ApexDestruction'
[2019.04.19-15.53.02:406][  0]LogLinker: Warning: Can't find file for asset '/Script/ApexDestruction' while loading NULL.
[2019.04.19-15.53.02:406][  0]LogLinker: Warning: Can't find file '/Script/ApexDestruction'
[2019.04.19-15.53.02:406][  0]LogLinker: Warning: Can't find file for asset '/Script/ApexDestruction' while loading NULL.
[2019.04.19-15.53.02:406][  0]LogLinker: Warning: Can't find file '/Script/ApexDestruction'
[2019.04.19-15.53.02:406][  0]LogLinker: Warning: Can't find file for asset '/Script/ApexDestruction' while loading NULL.
[2019.04.19-15.53.02:406][  0]LogLinker: Warning: Can't find file '/Script/ApexDestruction'
[2019.04.19-15.53.02:406][  0]LogLinker: Warning: Can't find file for asset '/Script/ApexDestruction' while loading NULL.
[2019.04.19-15.53.02:417][  0]LogLinker: Warning: Can't find file '/Script/ApexDestruction'
[2019.04.19-15.53.02:417][  0]LogLinker: Warning: Can't find file for asset '/Script/ApexDestruction' while loading NULL.
[2019.04.19-15.53.02:417][  0]LogLinker: Warning: Can't find file '/Script/ApexDestruction'
[2019.04.19-15.53.02:417][  0]LogLinker: Warning: Can't find file for asset '/Script/ApexDestruction' while loading NULL.
[2019.04.19-15.53.02:417][  0]LogLinker: Warning: Can't find file '/Script/ApexDestruction'
[2019.04.19-15.53.02:417][  0]LogLinker: Warning: Can't find file for asset '/Script/ApexDestruction' while loading NULL.
[2019.04.19-15.53.02:417][  0]LogLinker: Warning: Can't find file '/Script/ApexDestruction'
[2019.04.19-15.53.02:417][  0]LogLinker: Warning: Can't find file for asset '/Script/ApexDestruction' while loading NULL.
[2019.04.19-15.53.02:592][  0]LogLinker: Warning: Can't find file '/Game/Torretta/Sopratexture'
[2019.04.19-15.53.02:592][  0]LoadErrors: Failed to load /Game/Torretta/Sopratexture.Sopratexture Referenced by torrettamesh_Torus_001
[2019.04.19-15.53.02:592][  0]LogLinker: Warning: Can't find file for asset '/Game/Torretta/Sopratexture' while loading NULL.
[2019.04.19-15.53.02:592][  0]LoadErrors: Failed to load /Game/Torretta/Sopratexture.Sopratexture Referenced by torrettamesh_Torus_001
[2019.04.19-15.53.02:592][  0]LogLinker: Warning: Can't find file '/Game/Torretta/Sopratexture'
[2019.04.19-15.53.02:592][  0]LoadErrors: Failed to load /Game/Torretta/Sopratexture.Sopratexture Referenced by torrettamesh_Torus_001
[2019.04.19-15.53.02:593][  0]LogLinker: Warning: Can't find file for asset '/Game/Torretta/Sopratexture' while loading NULL.
[2019.04.19-15.53.02:593][  0]LoadErrors: Failed to load /Game/Torretta/Sopratexture.Sopratexture Referenced by torrettamesh_Torus_001
[2019.04.19-15.53.02:593][  0]LogLinker: Warning: Can't find file '/Game/Torretta/basetexture'
[2019.04.19-15.53.02:593][  0]LoadErrors: Failed to load /Game/Torretta/basetexture.basetexture Referenced by torrettamesh_Torus
[2019.04.19-15.53.02:593][  0]LogLinker: Warning: Can't find file for asset '/Game/Torretta/basetexture' while loading NULL.
[2019.04.19-15.53.02:593][  0]LoadErrors: Failed to load /Game/Torretta/basetexture.basetexture Referenced by torrettamesh_Torus
[2019.04.19-15.53.02:593][  0]LogLinker: Warning: Can't find file '/Game/Torretta/basetexture'
[2019.04.19-15.53.02:593][  0]LoadErrors: Failed to load /Game/Torretta/basetexture.basetexture Referenced by torrettamesh_Torus
[2019.04.19-15.53.02:594][  0]LogLinker: Warning: Can't find file for asset '/Game/Torretta/basetexture' while loading NULL.
[2019.04.19-15.53.02:594][  0]LoadErrors: Failed to load /Game/Torretta/basetexture.basetexture Referenced by torrettamesh_Torus
[2019.04.19-15.53.07:201][  0]LogAIModule: Creating AISystem for world FirstPersonExampleMap
[2019.04.19-15.53.07:238][  0]LogEditorServer: Finished looking for orphan Actors (0.000 secs)
[2019.04.19-15.53.07:276][  0]Cmd: MAP CHECKDEP NOCLEARLOG
[2019.04.19-15.53.07:276][  0]MapCheck: Map check complete: 0 Error(s), 0 Warning(s), took 0,235ms to complete.
[2019.04.19-15.53.07:276][  0]LogFileHelpers: Loading map 'FirstPersonExampleMap' took 7.044
[2019.04.19-15.53.07:431][  0]LogSlate: Updating window title bar state: overlay mode, drag disabled, window buttons hidden, title bar hidden
[2019.04.19-15.53.07:439][  0]LogSlate: Updating window title bar state: overlay mode, drag disabled, window buttons hidden, title bar hidden
[2019.04.19-15.53.07:446][  0]LogSlate: Updating window title bar state: overlay mode, drag disabled, window buttons hidden, title bar hidden
[2019.04.19-15.53.07:454][  0]LogSlate: Updating window title bar state: overlay mode, drag disabled, window buttons hidden, title bar hidden
[2019.04.19-15.53.07:467][  0]LogCollectionManager: Loaded 0 collections in 0.003018 seconds
[2019.04.19-15.53.07:484][  0]LogFileCache: Scanning file cache for directory 'C:/Users/tonyh/Documents/terroniafps/FPSterronia/Saved/Collections/' took 0.01s
[2019.04.19-15.53.07:485][  0]LogFileCache: Scanning file cache for directory 'C:/Users/tonyh/Documents/terroniafps/FPSterronia/Content/Developers/tonyh/Collections/' took 0.00s
[2019.04.19-15.53.07:485][  0]LogFileCache: Scanning file cache for directory 'C:/Users/tonyh/Documents/terroniafps/FPSterronia/Content/Collections/' took 0.00s
[2019.04.19-15.53.07:485][  0]LogCollectionManager: Rebuilt the GUID cache for 0 collections in 0.000000 seconds
[2019.04.19-15.53.07:493][  0]LogContentBrowser: Native class hierarchy populated in 0.0087 seconds. Added 2651 classes and 620 folders.
[2019.04.19-15.53.07:502][  0]LogContentBrowser: Native class hierarchy updated for 'WidgetCarousel' in 0.0002 seconds. Added 0 classes and 0 folders.
[2019.04.19-15.53.07:536][  0]LogPakFile: Registered encryption key '00000000000000000000000000000000': 0 pak files mounted, 0 remain pending
[2019.04.19-15.53.07:537][  0]LogPakFile: Registered encryption key '00000000000000000000000000000000': 0 pak files mounted, 0 remain pending
[2019.04.19-15.53.07:538][  0]LogPakFile: Registered encryption key '00000000000000000000000000000000': 0 pak files mounted, 0 remain pending
[2019.04.19-15.53.07:538][  0]LogPakFile: Registered encryption key '00000000000000000000000000000000': 0 pak files mounted, 0 remain pending
[2019.04.19-15.53.07:539][  0]LogPakFile: Registered encryption key '00000000000000000000000000000000': 0 pak files mounted, 0 remain pending
[2019.04.19-15.53.07:539][  0]LogPakFile: Registered encryption key '00000000000000000000000000000000': 0 pak files mounted, 0 remain pending
[2019.04.19-15.53.07:540][  0]LogPakFile: Registered encryption key '00000000000000000000000000000000': 0 pak files mounted, 0 remain pending
[2019.04.19-15.53.07:540][  0]LogPakFile: Registered encryption key '00000000000000000000000000000000': 0 pak files mounted, 0 remain pending
[2019.04.19-15.53.07:541][  0]LogPakFile: Registered encryption key '00000000000000000000000000000000': 0 pak files mounted, 0 remain pending
[2019.04.19-15.53.07:541][  0]LogPakFile: Registered encryption key '00000000000000000000000000000000': 0 pak files mounted, 0 remain pending
[2019.04.19-15.53.07:542][  0]LogPakFile: Registered encryption key '00000000000000000000000000000000': 0 pak files mounted, 0 remain pending
[2019.04.19-15.53.07:542][  0]LogPakFile: Registered encryption key '00000000000000000000000000000000': 0 pak files mounted, 0 remain pending
[2019.04.19-15.53.07:543][  0]LogPakFile: Registered encryption key '00000000000000000000000000000000': 0 pak files mounted, 0 remain pending
[2019.04.19-15.53.07:543][  0]LogPakFile: Registered encryption key '00000000000000000000000000000000': 0 pak files mounted, 0 remain pending
[2019.04.19-15.53.07:544][  0]LogPakFile: Registered encryption key '00000000000000000000000000000000': 0 pak files mounted, 0 remain pending
[2019.04.19-15.53.07:544][  0]LogPakFile: Registered encryption key '00000000000000000000000000000000': 0 pak files mounted, 0 remain pending
[2019.04.19-15.53.07:545][  0]LogPakFile: Registered encryption key '00000000000000000000000000000000': 0 pak files mounted, 0 remain pending
[2019.04.19-15.53.07:545][  0]LogPakFile: Registered encryption key '00000000000000000000000000000000': 0 pak files mounted, 0 remain pending
[2019.04.19-15.53.07:546][  0]LogPakFile: Registered encryption key '00000000000000000000000000000000': 0 pak files mounted, 0 remain pending
[2019.04.19-15.53.07:546][  0]LogPakFile: Registered encryption key '00000000000000000000000000000000': 0 pak files mounted, 0 remain pending
[2019.04.19-15.53.07:547][  0]LogPakFile: Registered encryption key '00000000000000000000000000000000': 0 pak files mounted, 0 remain pending
[2019.04.19-15.53.07:547][  0]LogPakFile: Registered encryption key '00000000000000000000000000000000': 0 pak files mounted, 0 remain pending
[2019.04.19-15.53.07:548][  0]LogPakFile: Registered encryption key '00000000000000000000000000000000': 0 pak files mounted, 0 remain pending
[2019.04.19-15.53.07:548][  0]LogPakFile: Registered encryption key '00000000000000000000000000000000': 0 pak files mounted, 0 remain pending
[2019.04.19-15.53.07:549][  0]LogPakFile: Registered encryption key '00000000000000000000000000000000': 0 pak files mounted, 0 remain pending
[2019.04.19-15.53.07:549][  0]LogPakFile: Registered encryption key '00000000000000000000000000000000': 0 pak files mounted, 0 remain pending
[2019.04.19-15.53.08:084][  0]LogContentBrowser: Native class hierarchy updated for 'AddContentDialog' in 0.0003 seconds. Added 0 classes and 0 folders.
[2019.04.19-15.53.08:090][  0]LogContentBrowser: Native class hierarchy updated for 'SceneOutliner' in 0.0003 seconds. Added 1 classes and 2 folders.
[2019.04.19-15.53.08:138][  0]LogContentBrowser: Native class hierarchy updated for 'HierarchicalLODOutliner' in 0.0003 seconds. Added 0 classes and 0 folders.
[2019.04.19-15.53.08:139][  0]LogLoad: (Engine Initialization) Total time: 19.62 seconds
[2019.04.19-15.53.08:139][  0]LogLoad: (Engine Initialization) Total Blueprint compile time: 0.00 seconds
[2019.04.19-15.53.08:158][  0]LogWindowsTextInputMethodSystem: Display: IME system now deactivated.
[2019.04.19-15.53.08:160][  0]LoadErrors: Warning: CreateExport: Failed to load Outer for resource 'AssetImportData': DestructibleMesh /Game/FPSLabo/Lezioni/Geometry/1M_Cube_0_DM.1M_Cube_0_DM
[2019.04.19-15.53.08:212][  0]LogContentStreaming: Texture pool size now 1000 MB
[2019.04.19-15.53.08:216][  0]LogSlate: FSceneViewport::OnFocusLost() reason 2
[2019.04.19-15.53.08:224][  0]LogSlate: Took 0.000222 seconds to synchronously load lazily loaded font '../../../Engine/Content/Slate/Fonts/Roboto-Regular.ttf' (155K)
[2019.04.19-15.53.08:226][  0]LogSlate: Took 0.000190 seconds to synchronously load lazily loaded font '../../../Engine/Content/Slate/Fonts/Roboto-Bold.ttf' (160K)
[2019.04.19-15.53.08:234][  0]LogSlate: Took 0.000247 seconds to synchronously load lazily loaded font '../../../Engine/Content/Editor/Slate/Fonts/FontAwesome.ttf' (139K)
[2019.04.19-15.53.08:373][  1]LogRenderer: Reallocating scene render targets to support 700x380 Format 10 NumSamples 1 (Frame:1).
[2019.04.19-15.53.09:036][  5]LogSlate: Took 0.000161 seconds to synchronously load lazily loaded font '../../../Engine/Content/Slate/Fonts/Roboto-Light.ttf' (167K)
[2019.04.19-15.53.09:306][ 10]LogAssetRegistry: Asset discovery search completed in 15.8211 seconds
[2019.04.19-15.53.09:310][ 10]LogCollectionManager: Rebuilt the object cache for 0 collections in 0.000000 seconds (found 0 objects)
[2019.04.19-15.53.09:310][ 10]LogCollectionManager: Fixed up redirectors for 0 collections in 0.000074 seconds (updated 0 objects)
[2019.04.19-15.53.12:841][220]LogSlate: Window 'Message Log' being destroyed
[2019.04.19-15.53.12:845][220]LogSlate: Window 'Message Log' being destroyed
[2019.04.19-15.53.14:949][329]LogSlate: FSceneViewport::OnFocusLost() reason 0
[2019.04.19-15.53.15:092][335]LogRenderer: Reallocating scene render targets to support 844x456 Format 10 NumSamples 1 (Frame:325).
[2019.04.19-15.53.28:440][ 80]LogSlate: Took 0.000217 seconds to synchronously load lazily loaded font '../../../Engine/Content/Slate/Fonts/Roboto-Light.ttf' (167K)
[2019.04.19-15.53.29:277][ 80]LogBlueprint: Warning: [Compiler FirstPersonCharacter_mk3] Could not find a variable named "ScopeOpacity" in 'FirstPersonHUD_C'.
Make sure 'FirstPersonHUD_C' has been compiled for  Set ScopeOpacity
[2019.04.19-15.53.29:277][ 80]LogBlueprint: Warning: [Compiler FirstPersonCharacter_mk3] InputAction Event references unknown Action 'Sprint' for  InputAction Sprint
[2019.04.19-15.53.29:282][ 80]LogBlueprint: Error: [Compiler FirstPersonCharacter_mk3] The property associated with  Scope Opacity  could not be found in '/Game/FirstPersonBP/Blueprints/FirstPersonCharacter_mK3.FirstPersonCharacter_mk3_C'
[2019.04.19-15.53.29:287][ 80]LogBlueprint: Warning: [Compiler FirstPersonCharacter_mk3] [0040,77] Compile of FirstPersonCharacter_mk3 failed. 1 Fatal Issue(s) 2 Warning(s) [in 26 ms] (/Game/FirstPersonBP/Blueprints/FirstPersonCharacter_mK3.FirstPersonCharacter_mk3)
[2019.04.19-15.53.44:706][ 80]LogAIModule: Creating AISystem for world Livello_2_Ivano
[2019.04.19-15.53.44:757][ 80]LogAssetEditorManager: Opening Asset editor for World /Game/FirstPersonBP/Maps/Livello_2_Ivano.Livello_2_Ivano
[2019.04.19-15.53.44:800][ 80]Cmd: MAP LOAD FILE="../../../../../../Users/tonyh/Documents/terroniafps/FPSterronia/Content/FirstPersonBP/Maps/Livello_2_Ivano.umap" TEMPLATE=0 SHOWPROGRESS=1 FEATURELEVEL=3
[2019.04.19-15.53.44:800][ 80]LightingResults: New page: Lighting Build
[2019.04.19-15.53.44:801][ 80]LoadErrors: New page: Loading map: Livello_2_Ivano.umap
[2019.04.19-15.53.44:844][ 80]MapCheck: New page: Map Check
[2019.04.19-15.53.44:844][ 80]LightingResults: New page: Lighting Build
[2019.04.19-15.53.44:959][ 80]LogEditorServer: Finished looking for orphan Actors (0.000 secs)
[2019.04.19-15.53.45:014][ 80]Cmd: MAP CHECKDEP NOCLEARLOG
[2019.04.19-15.53.45:014][ 80]MapCheck: Map check complete: 0 Error(s), 0 Warning(s), took 0,174ms to complete.
[2019.04.19-15.53.45:015][ 80]LogFileHelpers: Loading map 'Livello_2_Ivano' took 0.216
[2019.04.19-15.53.53:492][448]LogEditorViewport: Clicking on Actor (LMB): BP_Turret_ENEMY_C (BP_Turret_ENEMY)
[2019.04.19-15.54.30:012][167]LogSlate: FSceneViewport::OnFocusLost() reason 0
[2019.04.19-15.54.37:429][541]LogEditorViewport: Clicking on Actor (LMB): Radice_distruttibile_C (Radice_distruttibile)
[2019.04.19-15.55.33:697][352]LogSlate: FSceneViewport::OnFocusLost() reason 0
[2019.04.19-15.55.49:908][207]LogSlate: FSceneViewport::OnFocusLost() reason 0
[2019.04.19-15.56.08:772][739]LogEditorViewport: Clicking on Actor (LMB): RootBP_C (RootBP)
[2019.04.19-15.56.09:748][782]LogEditorViewport: Clicking on Actor (context menu): StaticMeshActor (Damaged_Arch_Alley_2)
[2019.04.19-15.56.10:165][782]LogSlate: FSceneViewport::OnFocusLost() reason 2
[2019.04.19-15.56.10:174][782]LogEditorViewport: Clicking on Actor (context menu): StaticMeshActor (Damaged_Arch_Alley_2)
[2019.04.19-15.56.10:213][782]LogSlate: FSceneViewport::OnFocusLost() reason 2
[2019.04.19-15.56.11:289][833]LogSlate: FSceneViewport::OnFocusLost() reason 0
[2019.04.19-15.56.15:905][ 51]LogEditorViewport: Clicking on Actor (LMB): RootBP_C (RootBP)
[2019.04.19-15.56.19:936][227]LogEditorViewport: Clicking on Actor (LMB): Radice_distruttibile_C (Radice_distruttibile)
[2019.04.19-15.56.22:748][361]LogSlate: FSceneViewport::OnFocusLost() reason 0
[2019.04.19-15.56.22:836][365]LogAssetEditorManager: Opening Asset editor for Blueprint /Game/FPSLabo/Assets/TeamTerronia/AssetOstacolo/BP/Radice_distruttibile.Radice_distruttibile
[2019.04.19-15.56.24:493][365]LogContentBrowser: Native class hierarchy updated for 'BlueprintGraph' in 0.0008 seconds. Added 117 classes and 0 folders.
[2019.04.19-15.56.27:062][365]LogSlate: Took 0.018961 seconds to synchronously load lazily loaded font '../../../Engine/Content/Slate/Fonts/Roboto-BoldCondensed.ttf' (158K)
[2019.04.19-15.56.39:448][510]LogSlate: Took 0.018519 seconds to synchronously load lazily loaded font '../../../Engine/Content/Slate/Fonts/Roboto-Italic.ttf' (157K)
[2019.04.19-15.56.43:267][663]LogRenderer: Reallocating scene render targets to support 1304x604 Format 10 NumSamples 1 (Frame:1).
[2019.04.19-15.57.05:203][392]LogSlate: FSceneViewport::OnFocusLost() reason 0
[2019.04.19-15.57.05:233][393]BlueprintLog: New page: Compile Radice_distruttibile
[2019.04.19-15.57.57:169][738]LogSlate: FSceneViewport::OnFocusLost() reason 0
[2019.04.19-15.57.57:232][741]LogTemp: Repeating last play command: Selected Viewport
[2019.04.19-15.57.57:276][741]LogBlueprintUserMessages: Early PlayInEditor Detection: Level '/Game/FirstPersonBP/Maps/Livello_2_Ivano.Livello_2_Ivano:PersistentLevel' has LevelScriptBlueprint '/Game/FirstPersonBP/Maps/Livello_2_Ivano.Livello_2_Ivano:PersistentLevel.Livello_2_Ivano' with GeneratedClass '/Game/FirstPersonBP/Maps/Livello_2_Ivano.Livello_2_Ivano_C' with ClassGeneratedBy '/Game/FirstPersonBP/Maps/Livello_2_Ivano.Livello_2_Ivano:PersistentLevel.Livello_2_Ivano'
[2019.04.19-15.57.57:277][741]LogPlayLevel: PlayLevel: No blueprints needed recompiling
[2019.04.19-15.57.59:393][741]LogSlate: Window 'Message' being destroyed
[2019.04.19-15.57.59:457][741]PIE: New page: PIE session: Livello_2_Ivano (19/apr/2019 19:57:59)
[2019.04.19-15.57.59:476][741]LogPlayLevel: Creating play world package: /Game/FirstPersonBP/Maps/UEDPIE_0_Livello_2_Ivano
[2019.04.19-15.57.59:551][741]LogPlayLevel: PIE: StaticDuplicateObject took: (0.073932s)
[2019.04.19-15.57.59:551][741]LogAIModule: Creating AISystem for world Livello_2_Ivano
[2019.04.19-15.57.59:551][741]LogPlayLevel: PIE: World Init took: (0.000795s)
[2019.04.19-15.57.59:552][741]LogPlayLevel: PIE: Created PIE world by copying editor world from /Game/FirstPersonBP/Maps/Livello_2_Ivano.Livello_2_Ivano to /Game/FirstPersonBP/Maps/UEDPIE_0_Livello_2_Ivano.Livello_2_Ivano (0.075348s)
[2019.04.19-15.57.59:602][741]LogInit: XAudio2 using 'Speakers (Conexant SmartAudio HD)' : 2 channels at 48 kHz using 32 bits per sample (channel mask 0x3)
[2019.04.19-15.58.00:622][741]LogInit: FAudioDevice initialized.
[2019.04.19-15.58.00:623][741]LogSlate: FSceneViewport::OnFocusLost() reason 2
[2019.04.19-15.58.00:698][741]LogLoad: Game class is 'FirstPersonGameMode_C'
[2019.04.19-15.58.00:736][741]LogWorld: Bringing World /Game/FirstPersonBP/Maps/UEDPIE_0_Livello_2_Ivano.Livello_2_Ivano up for play (max tick rate 60) at 2019.04.19-17.58.00
[2019.04.19-15.58.00:888][741]LogWorld: Bringing up level for play took: 0.164394
[2019.04.19-15.58.01:047][741]LogContentBrowser: Native class hierarchy updated for 'MovieSceneCapture' in 0.0012 seconds. Added 20 classes and 0 folders.
[2019.04.19-15.58.01:078][741]LogScript: Warning: Accessed None trying to read property PatrolPath
	BP_AI_CoverEnemy_Controller_C /Game/FirstPersonBP/Maps/UEDPIE_0_Livello_2_Ivano.Livello_2_Ivano:PersistentLevel.BP_AI_CoverEnemy_Controller_C_1
	Function /Game/FPSLabo/Assets/TeamOrnitorinchi/AI/allBP/BP/BP_AI_CoverEnemy_Controller.BP_AI_CoverEnemy_Controller_C:ExecuteUbergraph_BP_AI_CoverEnemy_Controller:015D
[2019.04.19-15.58.01:078][741]PIE: Error: Blueprint Runtime Error: "Accessed None trying to read property PatrolPath". Blueprint:  BP_AI_CoverEnemy_Controller Function:  Execute Ubergraph BP AI Cover Enemy Controller Graph:  EventGraph Node:  Set Value as Bool
[2019.04.19-15.58.01:140][741]PIE: Play in editor start time for /Game/FirstPersonBP/Maps/UEDPIE_0_Livello_2_Ivano 3,297
[2019.04.19-15.58.01:140][741]LogBlueprintUserMessages: Late PlayInEditor Detection: Level '/Game/FirstPersonBP/Maps/Livello_2_Ivano.Livello_2_Ivano:PersistentLevel' has LevelScriptBlueprint '/Game/FirstPersonBP/Maps/Livello_2_Ivano.Livello_2_Ivano:PersistentLevel.Livello_2_Ivano' with GeneratedClass '/Game/FirstPersonBP/Maps/Livello_2_Ivano.Livello_2_Ivano_C' with ClassGeneratedBy '/Game/FirstPersonBP/Maps/Livello_2_Ivano.Livello_2_Ivano:PersistentLevel.Livello_2_Ivano'
[2019.04.19-15.58.01:234][741]LogScript: Warning: Script Msg: Attempted to access index 0 from array 'PathPoints' of length 0 in '/Game/FPSLabo/Assets/TeamOrnitorinchi/AI/allBP/BP/BP_PatrolPath.BP_PatrolPath_C'!
[2019.04.19-15.58.01:922][764]LogScript: Warning: Script Msg: Attempted to access index 0 from array 'PathPoints' of length 0 in '/Game/FPSLabo/Assets/TeamOrnitorinchi/AI/allBP/BP/BP_PatrolPath.BP_PatrolPath_C'!
[2019.04.19-15.58.02:531][796]LogScript: Warning: Script Msg: Attempted to access index 0 from array 'PathPoints' of length 0 in '/Game/FPSLabo/Assets/TeamOrnitorinchi/AI/allBP/BP/BP_PatrolPath.BP_PatrolPath_C'!
[2019.04.19-15.58.03:130][827]LogScript: Warning: Script Msg: Attempted to access index 0 from array 'PathPoints' of length 0 in '/Game/FPSLabo/Assets/TeamOrnitorinchi/AI/allBP/BP/BP_PatrolPath.BP_PatrolPath_C'!
[2019.04.19-15.58.03:742][859]LogScript: Warning: Script Msg: Attempted to access index 0 from array 'PathPoints' of length 0 in '/Game/FPSLabo/Assets/TeamOrnitorinchi/AI/allBP/BP/BP_PatrolPath.BP_PatrolPath_C'!
[2019.04.19-15.58.04:345][890]LogScript: Warning: Script Msg: Attempted to access index 0 from array 'PathPoints' of length 0 in '/Game/FPSLabo/Assets/TeamOrnitorinchi/AI/allBP/BP/BP_PatrolPath.BP_PatrolPath_C'!
[2019.04.19-15.58.04:949][921]LogScript: Warning: Script Msg: Attempted to access index 0 from array 'PathPoints' of length 0 in '/Game/FPSLabo/Assets/TeamOrnitorinchi/AI/allBP/BP/BP_PatrolPath.BP_PatrolPath_C'!
[2019.04.19-15.58.05:554][952]LogScript: Warning: Script Msg: Attempted to access index 0 from array 'PathPoints' of length 0 in '/Game/FPSLabo/Assets/TeamOrnitorinchi/AI/allBP/BP/BP_PatrolPath.BP_PatrolPath_C'!
[2019.04.19-15.58.06:164][983]LogScript: Warning: Script Msg: Attempted to access index 0 from array 'PathPoints' of length 0 in '/Game/FPSLabo/Assets/TeamOrnitorinchi/AI/allBP/BP/BP_PatrolPath.BP_PatrolPath_C'!
[2019.04.19-15.58.06:770][ 14]LogScript: Warning: Script Msg: Attempted to access index 0 from array 'PathPoints' of length 0 in '/Game/FPSLabo/Assets/TeamOrnitorinchi/AI/allBP/BP/BP_PatrolPath.BP_PatrolPath_C'!
[2019.04.19-15.58.07:383][ 45]LogScript: Warning: Script Msg: Attempted to access index 0 from array 'PathPoints' of length 0 in '/Game/FPSLabo/Assets/TeamOrnitorinchi/AI/allBP/BP/BP_PatrolPath.BP_PatrolPath_C'!
[2019.04.19-15.58.07:990][ 74]LogScript: Warning: Script Msg: Attempted to access index 0 from array 'PathPoints' of length 0 in '/Game/FPSLabo/Assets/TeamOrnitorinchi/AI/allBP/BP/BP_PatrolPath.BP_PatrolPath_C'!
[2019.04.19-15.58.08:604][105]LogScript: Warning: Script Msg: Attempted to access index 0 from array 'PathPoints' of length 0 in '/Game/FPSLabo/Assets/TeamOrnitorinchi/AI/allBP/BP/BP_PatrolPath.BP_PatrolPath_C'!
[2019.04.19-15.58.09:220][136]LogScript: Warning: Script Msg: Attempted to access index 0 from array 'PathPoints' of length 0 in '/Game/FPSLabo/Assets/TeamOrnitorinchi/AI/allBP/BP/BP_PatrolPath.BP_PatrolPath_C'!
[2019.04.19-15.58.09:830][156]LogScript: Warning: Script Msg: Attempted to access index 0 from array 'PathPoints' of length 0 in '/Game/FPSLabo/Assets/TeamOrnitorinchi/AI/allBP/BP/BP_PatrolPath.BP_PatrolPath_C'!
[2019.04.19-15.58.10:436][186]LogScript: Warning: Script Msg: Attempted to access index 0 from array 'PathPoints' of length 0 in '/Game/FPSLabo/Assets/TeamOrnitorinchi/AI/allBP/BP/BP_PatrolPath.BP_PatrolPath_C'!
[2019.04.19-15.58.11:036][217]LogScript: Warning: Script Msg: Attempted to access index 0 from array 'PathPoints' of length 0 in '/Game/FPSLabo/Assets/TeamOrnitorinchi/AI/allBP/BP/BP_PatrolPath.BP_PatrolPath_C'!
[2019.04.19-15.58.11:159][222]LogAnimation: Warning: AnimBP ThirdPerson_AnimBP_C is incompatible with skeleton UE4_Mannequin_Skeleton, removing AnimBP from actor.
[2019.04.19-15.58.11:644][249]LogScript: Warning: Script Msg: Attempted to access index 0 from array 'PathPoints' of length 0 in '/Game/FPSLabo/Assets/TeamOrnitorinchi/AI/allBP/BP/BP_PatrolPath.BP_PatrolPath_C'!
[2019.04.19-15.58.12:254][282]LogScript: Warning: Script Msg: Attempted to access index 0 from array 'PathPoints' of length 0 in '/Game/FPSLabo/Assets/TeamOrnitorinchi/AI/allBP/BP/BP_PatrolPath.BP_PatrolPath_C'!
[2019.04.19-15.58.12:849][314]LogScript: Warning: Script Msg: Attempted to access index 0 from array 'PathPoints' of length 0 in '/Game/FPSLabo/Assets/TeamOrnitorinchi/AI/allBP/BP/BP_PatrolPath.BP_PatrolPath_C'!
[2019.04.19-15.58.13:448][346]LogScript: Warning: Script Msg: Attempted to access index 0 from array 'PathPoints' of length 0 in '/Game/FPSLabo/Assets/TeamOrnitorinchi/AI/allBP/BP/BP_PatrolPath.BP_PatrolPath_C'!
[2019.04.19-15.58.14:049][378]LogScript: Warning: Script Msg: Attempted to access index 0 from array 'PathPoints' of length 0 in '/Game/FPSLabo/Assets/TeamOrnitorinchi/AI/allBP/BP/BP_PatrolPath.BP_PatrolPath_C'!
[2019.04.19-15.58.14:657][410]LogScript: Warning: Script Msg: Attempted to access index 0 from array 'PathPoints' of length 0 in '/Game/FPSLabo/Assets/TeamOrnitorinchi/AI/allBP/BP/BP_PatrolPath.BP_PatrolPath_C'!
[2019.04.19-15.58.15:265][442]LogScript: Warning: Script Msg: Attempted to access index 0 from array 'PathPoints' of length 0 in '/Game/FPSLabo/Assets/TeamOrnitorinchi/AI/allBP/BP/BP_PatrolPath.BP_PatrolPath_C'!
[2019.04.19-15.58.15:871][474]LogScript: Warning: Script Msg: Attempted to access index 0 from array 'PathPoints' of length 0 in '/Game/FPSLabo/Assets/TeamOrnitorinchi/AI/allBP/BP/BP_PatrolPath.BP_PatrolPath_C'!
[2019.04.19-15.58.16:347][499]LogAnimation: Warning: AnimBP ThirdPerson_AnimBP_C is incompatible with skeleton UE4_Mannequin_Skeleton, removing AnimBP from actor.
[2019.04.19-15.58.16:480][506]LogScript: Warning: Script Msg: Attempted to access index 0 from array 'PathPoints' of length 0 in '/Game/FPSLabo/Assets/TeamOrnitorinchi/AI/allBP/BP/BP_PatrolPath.BP_PatrolPath_C'!
[2019.04.19-15.58.17:087][538]LogScript: Warning: Script Msg: Attempted to access index 0 from array 'PathPoints' of length 0 in '/Game/FPSLabo/Assets/TeamOrnitorinchi/AI/allBP/BP/BP_PatrolPath.BP_PatrolPath_C'!
[2019.04.19-15.58.17:682][569]LogScript: Warning: Script Msg: Attempted to access index 0 from array 'PathPoints' of length 0 in '/Game/FPSLabo/Assets/TeamOrnitorinchi/AI/allBP/BP/BP_PatrolPath.BP_PatrolPath_C'!
[2019.04.19-15.58.20:004][688]LogAnimation: Warning: AnimBP ThirdPerson_AnimBP_C is incompatible with skeleton UE4_Mannequin_Skeleton, removing AnimBP from actor.
[2019.04.19-15.58.21:599][768]LogAnimation: Warning: AnimBP ThirdPerson_AnimBP_C is incompatible with skeleton UE4_Mannequin_Skeleton, removing AnimBP from actor.
[2019.04.19-15.58.25:123][943]LogBlueprintUserMessages: [BP_AI_CoverEnemy_Character2_5] 40.0
[2019.04.19-15.58.25:619][967]LogBlueprintUserMessages: [BP_AI_CoverEnemy_Character2_5] 30.0
[2019.04.19-15.58.25:888][980]LogBlueprintUserMessages: [BP_AI_CoverEnemy_Character2_5] 20.0
[2019.04.19-15.58.26:178][994]LogBlueprintUserMessages: [BP_AI_CoverEnemy_Character2_5] 10.0
[2019.04.19-15.58.26:532][ 11]LogBlueprintUserMessages: [BP_AI_CoverEnemy_Character2_5] 0.0
[2019.04.19-15.58.28:209][ 90]LogAnimation: Warning: AnimBP ThirdPerson_AnimBP_C is incompatible with skeleton UE4_Mannequin_Skeleton, removing AnimBP from actor.
[2019.04.19-15.58.29:036][130]LogScript: Warning: Script Msg: Attempted to access index 0 from array 'CallFunc_GetComponentsByTag_ReturnValue' of length 0 in '/Game/FPSLabo/Assets/TeamNutrie/FirstPersonCharacter/BP/FPCgiusto.FPCgiusto_C:StartTrancing'!
[2019.04.19-15.58.29:036][130]LogScript: Warning: Accessed None trying to read property CallFunc_Array_Get_Item
	FPCgiusto_C /Game/FirstPersonBP/Maps/UEDPIE_0_Livello_2_Ivano.Livello_2_Ivano:PersistentLevel.FPCgiusto_C_0
	Function /Game/FPSLabo/Assets/TeamNutrie/FirstPersonCharacter/BP/FPCgiusto.FPCgiusto_C:StartTrancing:008C
[2019.04.19-15.58.29:036][130]PIE: Error: Blueprint Runtime Error: "Accessed None trying to read property CallFunc_Array_Get_Item". Blueprint:  FPCgiusto Function:  Start Trancing Graph:  StartTrancing Node:  Set Render Custom Depth
[2019.04.19-15.58.33:551][345]LogBlueprintUserMessages: [BP_AI_CoverEnemy_Character_2] 40.0
[2019.04.19-15.58.33:723][353]LogBlueprintUserMessages: [BP_AI_CoverEnemy_Character_2] 30.0
[2019.04.19-15.58.33:893][361]LogBlueprintUserMessages: [BP_AI_CoverEnemy_Character_2] 20.0
[2019.04.19-15.58.34:065][369]LogBlueprintUserMessages: [BP_AI_CoverEnemy_Character_2] 10.0
[2019.04.19-15.58.34:215][376]LogBlueprintUserMessages: [BP_AI_CoverEnemy_Character_2] 0.0
[2019.04.19-15.58.44:378][843]LogScript: Warning: Script Msg: Attempted to access index 0 from array 'CallFunc_GetComponentsByTag_ReturnValue' of length 0 in '/Game/FPSLabo/Assets/TeamNutrie/FirstPersonCharacter/BP/FPCgiusto.FPCgiusto_C:StartTrancing'!
[2019.04.19-15.58.44:378][843]LogScript: Warning: Accessed None trying to read property CallFunc_Array_Get_Item
	FPCgiusto_C /Game/FirstPersonBP/Maps/UEDPIE_0_Livello_2_Ivano.Livello_2_Ivano:PersistentLevel.FPCgiusto_C_0
	Function /Game/FPSLabo/Assets/TeamNutrie/FirstPersonCharacter/BP/FPCgiusto.FPCgiusto_C:StartTrancing:008C
[2019.04.19-15.58.44:379][843]PIE: Error: Blueprint Runtime Error: "Accessed None trying to read property CallFunc_Array_Get_Item". Blueprint:  FPCgiusto Function:  Start Trancing Graph:  StartTrancing Node:  Set Render Custom Depth
[2019.04.19-15.58.46:365][943]LogScript: Warning: Script Msg: Attempted to access index 0 from array 'CallFunc_GetComponentsByTag_ReturnValue' of length 0 in '/Game/FPSLabo/Assets/TeamNutrie/FirstPersonCharacter/BP/FPCgiusto.FPCgiusto_C:StopTracing'!
[2019.04.19-15.58.46:366][943]LogScript: Warning: Accessed None trying to read property CallFunc_Array_Get_Item
	FPCgiusto_C /Game/FirstPersonBP/Maps/UEDPIE_0_Livello_2_Ivano.Livello_2_Ivano:PersistentLevel.FPCgiusto_C_0
	Function /Game/FPSLabo/Assets/TeamNutrie/FirstPersonCharacter/BP/FPCgiusto.FPCgiusto_C:StopTracing:034A
[2019.04.19-15.58.46:366][943]PIE: Error: Blueprint Runtime Error: "Accessed None trying to read property CallFunc_Array_Get_Item". Blueprint:  FPCgiusto Function:  Stop Tracing Graph:  StopTracing Node:  Set Render Custom Depth
[2019.04.19-15.58.52:991][285]LogScript: Warning: Script Msg: Attempted to access index 0 from array 'CallFunc_GetComponentsByTag_ReturnValue' of length 0 in '/Game/FPSLabo/Assets/TeamNutrie/FirstPersonCharacter/BP/FPCgiusto.FPCgiusto_C:StartTrancing'!
[2019.04.19-15.58.52:991][285]LogScript: Warning: Accessed None trying to read property CallFunc_Array_Get_Item
	FPCgiusto_C /Game/FirstPersonBP/Maps/UEDPIE_0_Livello_2_Ivano.Livello_2_Ivano:PersistentLevel.FPCgiusto_C_0
	Function /Game/FPSLabo/Assets/TeamNutrie/FirstPersonCharacter/BP/FPCgiusto.FPCgiusto_C:StartTrancing:008C
[2019.04.19-15.58.52:991][285]PIE: Error: Blueprint Runtime Error: "Accessed None trying to read property CallFunc_Array_Get_Item". Blueprint:  FPCgiusto Function:  Start Trancing Graph:  StartTrancing Node:  Set Render Custom Depth
[2019.04.19-15.58.54:826][380]LogScript: Warning: Script Msg: Attempted to access index 0 from array 'CallFunc_GetComponentsByTag_ReturnValue' of length 0 in '/Game/FPSLabo/Assets/TeamNutrie/FirstPersonCharacter/BP/FPCgiusto.FPCgiusto_C:StopTracing'!
[2019.04.19-15.58.54:826][380]LogScript: Warning: Accessed None trying to read property CallFunc_Array_Get_Item
	FPCgiusto_C /Game/FirstPersonBP/Maps/UEDPIE_0_Livello_2_Ivano.Livello_2_Ivano:PersistentLevel.FPCgiusto_C_0
	Function /Game/FPSLabo/Assets/TeamNutrie/FirstPersonCharacter/BP/FPCgiusto.FPCgiusto_C:StopTracing:034A
[2019.04.19-15.58.54:826][380]PIE: Error: Blueprint Runtime Error: "Accessed None trying to read property CallFunc_Array_Get_Item". Blueprint:  FPCgiusto Function:  Stop Tracing Graph:  StopTracing Node:  Set Render Custom Depth
[2019.04.19-15.59.12:230][263]LogSlate: FSceneViewport::OnFocusLost() reason 2
[2019.04.19-15.59.13:427][326]LogBlueprintUserMessages: Early EndPlayMap Detection: Level '/Game/FirstPersonBP/Maps/Livello_2_Ivano.Livello_2_Ivano:PersistentLevel' has LevelScriptBlueprint '/Game/FirstPersonBP/Maps/Livello_2_Ivano.Livello_2_Ivano:PersistentLevel.Livello_2_Ivano' with GeneratedClass '/Game/FirstPersonBP/Maps/Livello_2_Ivano.Livello_2_Ivano_C' with ClassGeneratedBy '/Game/FirstPersonBP/Maps/Livello_2_Ivano.Livello_2_Ivano:PersistentLevel.Livello_2_Ivano'
[2019.04.19-15.59.13:428][326]LogSlate: Updating window title bar state: overlay mode, drag disabled, window buttons hidden, title bar hidden
[2019.04.19-15.59.13:473][326]LogPlayLevel: Display: Shutting down PIE online subsystems
[2019.04.19-15.59.13:473][326]LogBlueprintUserMessages: Late EndPlayMap Detection: Level '/Game/FirstPersonBP/Maps/Livello_2_Ivano.Livello_2_Ivano:PersistentLevel' has LevelScriptBlueprint '/Game/FirstPersonBP/Maps/Livello_2_Ivano.Livello_2_Ivano:PersistentLevel.Livello_2_Ivano' with GeneratedClass '/Game/FirstPersonBP/Maps/Livello_2_Ivano.Livello_2_Ivano_C' with ClassGeneratedBy '/Game/FirstPersonBP/Maps/Livello_2_Ivano.Livello_2_Ivano:PersistentLevel.Livello_2_Ivano'
[2019.04.19-15.59.13:516][326]LogSlate: Updating window title bar state: overlay mode, drag disabled, window buttons hidden, title bar hidden
[2019.04.19-15.59.13:604][327]LogPlayLevel: Display: Destroying online subsystem :Context_4
[2019.04.19-15.59.24:249][825]LogSlate: Window 'Message Log' being destroyed
[2019.04.19-15.59.24:253][825]LogSlate: Window 'Message Log' being destroyed
[2019.04.19-16.04.35:910][981]LogRHI: Error: SyncInterval 0
[2019.04.19-16.04.35:910][981]LogRHI: Error: SwapChainDesc.BufferDesc.Width 9
[2019.04.19-16.04.35:910][981]LogRHI: Error: SwapChainDesc.BufferDesc.Height 70
[2019.04.19-16.04.35:910][981]LogRHI: Error: SwapChainDesc.BufferDesc.RefreshRate.Numerator 0
[2019.04.19-16.04.35:910][981]LogRHI: Error: SwapChainDesc.BufferDesc.RefreshRate.Denominator 0
[2019.04.19-16.04.35:910][981]LogRHI: Error: SwapChainDesc.BufferDesc.Format 24
[2019.04.19-16.04.35:910][981]LogRHI: Error: SwapChainDesc.BufferDesc.ScanlineOrdering 0
[2019.04.19-16.04.35:910][981]LogRHI: Error: SwapChainDesc.BufferDesc.Scaling 0
[2019.04.19-16.04.35:910][981]LogRHI: Error: SwapChainDesc.SampleDesc.Count 1
[2019.04.19-16.04.35:910][981]LogRHI: Error: SwapChainDesc.SampleDesc.Quality 0
[2019.04.19-16.04.35:910][981]LogRHI: Error: SwapChainDesc.BufferUsage 48
[2019.04.19-16.04.35:910][981]LogRHI: Error: SwapChainDesc.BufferCount 1
[2019.04.19-16.04.35:910][981]LogRHI: Error: SwapChainDesc.OutputWindow 0000000000070400
[2019.04.19-16.04.35:910][981]LogRHI: Error: SwapChainDesc.Windowed true
[2019.04.19-16.04.35:910][981]LogRHI: Error: SwapChainDesc.SwapEffect 0
[2019.04.19-16.04.35:910][981]LogRHI: Error: SwapChainDesc.Flags 2
[2019.04.19-16.04.35:910][981]LogD3D11RHI: Error: Result failed 
 at D:\Build\++UE4\Sync\Engine\Source\Runtime\Windows\D3D11RHI\Private\D3D11Viewport.cpp:361 
 with error E_INVALIDARG
[2019.04.19-16.04.35:963][981]LogWindows: Windows GetLastError: Operazione completata. (0)
